﻿Sample,SBS,DBS,ID,SV,country
PD37727a,32901,107,3324,905,Kenya
PD37728a,9307,21,582,312,Kenya
PD37729a,16348,51,926,185,Kenya
PD37730a,7720,51,696,146,Kenya
PD37731a,21453,41,590,86,Kenya
PD37733a,13767,43,1097,284,Kenya
PD37734a,3249,10,225,117,Kenya
PD37735a,8494,24,534,131,Kenya
PD37737a,12270,40,652,303,Kenya
PD37738a,7841,23,412,176,Kenya
PD37739a,7608,26,577,405,Kenya
PD37740a,17355,44,730,165,Kenya
PD37741a,6047,14,322,205,Kenya
PD37742a,6722,15,411,275,Kenya
PD37743a,7752,30,496,179,Kenya
PD37745a,4224,8,490,124,Kenya
PD37746a,5333,25,280,150,Kenya
PD37747a,6264,32,423,226,Kenya
PD37748a,4068,5,438,135,Kenya
PD37749a,13376,30,925,142,Kenya
PD37751a,11815,48,760,238,Kenya
PD37752a,5359,21,497,141,Kenya
PD37753a,9308,34,553,354,Kenya
PD37754a,9218,31,700,380,Kenya
PD37756a,6273,31,630,96,Kenya
PD37757a,15854,38,1592,204,Kenya
PD39480a,10367,31,653,371,Kenya
PD39481a,6425,18,682,282,Kenya
PD39482a,10680,37,556,354,Kenya
PD39483a,6952,20,336,243,Kenya
PD39484a,13440,39,1530,121,Kenya
PD39485a,9702,36,891,391,Kenya
PD39486a,4082,9,165,99,Kenya
PD39487a,2863,9,119,105,Kenya
PD39488a,15614,45,1267,260,Kenya
PD39489a,11961,29,909,146,Kenya
PD39490a,8571,18,981,203,Kenya
PD39491a,23118,58,1061,277,Kenya
PD39492a,5886,11,442,385,Kenya
PD39493a,62240,28,38451,203,Iran
PD39494a,11070,42,1166,280,Tanzania
PD39495a,6541,21,508,182,Tanzania
PD39496a,8254,16,475,5,Tanzania
PD39497a,6688,19,574,342,Tanzania
PD39499a,8428,44,691,281,Tanzania
PD39500a,33279,60,1099,415,Tanzania
PD39501a,15082,53,914,184,Tanzania
PD39502a,6168,33,647,213,Tanzania
PD39505a,8319,35,286,167,Kenya
PD39506a,2878,6,177,130,Kenya
PD39507a,9837,19,342,112,Kenya
PD39508a,16516,59,870,366,Kenya
PD39510a,4638,18,297,269,Kenya
PD39511a,5686,16,651,160,Kenya
PD39512a,8485,17,366,200,Kenya
PD39514a,6815,11,705,381,Kenya
PD39515a,6687,15,421,164,Kenya
PD39517a,2967,6,235,123,Kenya
PD39518a,8091,35,404,227,Kenya
PD39519a,14241,84,968,301,Kenya
PD39520a,12099,28,693,214,Kenya
PD39521a,5372,12,485,147,Kenya
PD39522a,9886,59,602,251,Kenya
PD39523a,17774,35,688,106,Iran
PD39955a,8002,28,929,159,Iran
PD39957a,14149,51,903,545,Iran
PD39958a,11835,54,471,178,Iran
PD39959a,7606,14,298,341,Iran
PD39960a,7865,28,651,177,Iran
PD39961a,5466,18,408,189,Iran
PD39962a,12158,16,878,130,Iran
PD39963a,22056,97,1262,338,Iran
PD39964a,13089,81,976,772,Iran
PD39965a,20434,91,1277,337,Iran
PD39966a,15905,29,693,153,Iran
PD39967a,23613,43,685,238,Iran
PD39969a,39497,86,698,120,Iran
PD39970a,10689,39,1102,237,Iran
PD39971a,9724,33,806,402,Iran
PD39972a,12820,29,1130,164,Iran
PD39973a,8197,21,521,33,Iran
PD39974a,11677,44,936,265,Iran
PD39975a,6495,26,622,233,Iran
PD39976a,11209,62,998,223,Iran
PD39977a,6773,26,348,62,Iran
PD39978a,9391,33,616,198,Iran
PD39979a,9661,35,786,114,Iran
PD39981a,11722,41,542,293,Iran
PD39983a,4565,9,126,88,Iran
PD39984a,17074,34,512,275,Iran
PD39985a,10641,32,1162,207,Iran
PD39987a,9567,34,840,151,Iran
PD39988a,19160,61,1164,333,Iran
PD39989a,19376,61,1100,447,Iran
PD39990a,15578,41,1162,79,Iran
PD39991a,10247,39,806,128,Iran
PD39992a,12871,36,453,146,Iran
PD39993a,10506,81,493,211,Iran
PD39994a,20650,47,1115,294,Iran
PD39996a,16962,32,1417,350,Iran
PD39998a,8297,20,289,125,Iran
PD39999a,10236,33,635,472,Iran
PD40000a,28778,31,35570,63,Iran
PD40001a,12334,42,807,200,Iran
PD40004a,10207,30,729,206,Iran
PD40006a,16998,70,1256,202,Iran
PD40007a,12901,13,391,1,Iran
PD40009a,17051,110,1723,281,Iran
PD40010a,5027,9,292,134,Iran
PD40011a,5157,21,276,143,Iran
PD40012a,14082,42,1037,401,Iran
PD40013a,11548,47,1361,212,Iran
PD40015a,12760,46,1303,199,Iran
PD40017a,9856,34,1270,216,Iran
PD40018a,10177,41,804,147,Iran
PD40019a,11684,48,1228,203,Iran
PD40020a,9729,30,527,202,Iran
PD40021a,10469,57,872,176,Iran
PD40023a,28674,145,2142,399,Iran
PD40024a,1347,7,73,99,Iran
PD40025a,15400,127,785,221,Iran
PD40026a,18963,84,1159,541,Tanzania
PD40027a,16009,65,774,5,Tanzania
PD40028a,10676,15,897,404,Tanzania
PD40030a,13077,31,752,212,Tanzania
PD40031a,44137,33,50626,56,Tanzania
PD40032a,9312,22,914,156,Tanzania
PD40033a,14623,84,1504,402,Kenya
PD40035a,4991,2,286,63,Kenya
PD40037a,11224,36,402,230,Kenya
PD40038a,9992,40,872,291,Kenya
PD40039a,8455,49,841,104,Kenya
PD40040a,4455,19,631,243,Kenya
PD40041a,4486,15,456,178,Kenya
PD40316a,5799,23,756,413,Iran
PD40317a,2062,5,98,64,Iran
PD40318a,14718,44,1345,192,Iran
PD40319a,17580,73,630,442,Iran
PD40320a,20915,47,1479,129,Iran
PD40321a,11310,28,871,116,Iran
PD40322a,5637,18,410,127,Iran
PD40323a,5875,10,241,148,Iran
PD40324a,9418,12,157,31,Iran
PD40325a,10525,34,1543,375,Iran
PD40326a,10240,36,502,309,Iran
PD40327a,15327,52,1448,216,Iran
PD40328a,14174,35,340,165,Iran
PD40329a,8126,16,796,96,Iran
PD40330a,11969,41,887,268,Iran
PD40331a,18033,124,1136,205,Iran
PD40332a,21076,55,725,239,Iran
PD40333a,8575,12,422,57,Iran
PD40334a,6217,13,380,160,Iran
PD40335a,11543,36,658,33,Iran
PD40336a,15968,43,1743,484,Iran
PD40337a,7694,21,753,219,Iran
PD40338a,10464,35,1015,109,Iran
PD40339a,20665,52,1023,203,Iran
PD40340a,17126,87,1402,204,Iran
PD40343a,16764,47,752,57,Iran
PD40345a,9921,25,1093,159,Iran
PD40346a,8498,30,653,342,Iran
PD40348a,9943,26,1057,199,Iran
PD40349a,14040,50,957,358,Iran
PD40350a,18444,41,588,171,Iran
PD40351a,5490,15,312,43,Iran
PD40352a,19199,38,1575,361,Iran
PD40353a,9170,18,623,74,Iran
PD40354a,8039,20,585,131,Iran
PD40355a,10144,26,517,277,Iran
PD40356a,11863,43,691,341,Iran
PD40357a,13568,62,970,158,Iran
PD40358a,18971,14,858,395,Iran
PD40360a,58135,130,1658,890,Iran
PD40847a,12674,47,1042,296,Iran
PD40848a,14541,45,1585,354,Iran
PD40849a,4311,14,274,133,Iran
PD40850a,19668,61,696,257,Iran
PD40852a,11579,21,1042,437,Iran
PD40853a,33909,134,1884,252,Iran
PD40854a,16138,55,1174,535,Iran
PD40855a,3685,6,189,94,Iran
PD40856a,24198,86,1680,371,Iran
PD40857a,17557,52,1209,70,Iran
PD40858a,10091,25,1404,254,Iran
PD40859a,14629,72,1035,346,Iran
PD40861a,5401,19,171,119,Iran
PD40862a,6505,7,455,349,Tanzania
PD40863a,6970,14,959,188,Tanzania
PD40864a,8573,18,979,290,Tanzania
PD40865a,8327,17,691,111,Tanzania
PD40866a,6677,24,392,188,Kenya
PD40867a,29271,90,2009,365,Kenya
PD40868a,7895,26,565,44,Kenya
PD40869a,10051,40,1065,493,Kenya
PD41420a,10562,25,730,227,China
PD41421a,7245,27,767,238,China
PD41423a,8963,70,862,353,China
PD41424a,8160,25,651,152,China
PD41425a,7026,10,548,145,China
PD41426a,23800,39,5229,261,China
PD41427a,15893,68,1281,473,China
PD41428a,15256,66,1107,593,China
PD41429a,8737,16,515,197,China
PD41430a,5040,4,173,48,China
PD41431a,8290,26,875,306,China
PD41432a,8359,33,470,164,China
PD41433a,10597,25,880,259,China
PD41434a,14695,44,1213,386,China
PD41435a,13446,52,988,245,China
PD41437a,10040,44,979,156,China
PD41438a,9546,24,571,218,China
PD41439a,3320,8,149,90,China
PD41440a,5235,12,613,47,China
PD41441a,11746,38,1290,178,China
PD41443a,31005,71,753,441,China
PD41444a,24095,56,1038,321,China
PD41445a,16857,36,644,359,China
PD41446a,8958,18,320,289,China
PD41447a,8152,17,545,371,China
PD41448a,4381,11,166,87,China
PD41449a,10696,29,533,273,China
PD41450a,9094,12,913,117,China
PD41452a,16896,90,1059,179,China
PD41453a,10702,34,692,131,China
PD41454a,16660,70,1207,918,China
PD41455a,17186,99,1328,295,China
PD41456a,8570,24,586,127,China
PD41457a,11599,35,1118,375,China
PD41458a,8059,21,496,49,China
PD41459a,9272,27,675,70,China
PD41460a,7215,34,866,181,China
PD41461a,10483,36,705,130,China
PD41462a,6474,13,288,175,China
PD41463a,2573,3,122,39,China
PD41464a,22953,78,1267,338,China
PD41465a,17255,33,933,126,China
PD41466a,22251,60,920,316,Iran
PD41467a,18938,91,1385,878,Iran
PD41468a,11266,27,1850,174,Iran
PD41470a,12730,49,667,8,Iran
PD41471a,15190,72,1300,508,Iran
PD41472a,11381,26,697,214,Iran
PD41473a,12826,44,1406,174,Iran
PD41474a,23756,49,1475,139,Iran
PD41475a,14609,52,1607,230,Iran
PD41476a,25190,69,1257,242,Iran
PD41477a,18564,51,837,133,Iran
PD41478a,8134,9,443,139,Iran
PD41479a,8004,27,275,126,Iran
PD41481a,44134,105,804,354,Iran
PD41483a,12204,44,608,362,China
PD41484a,11495,27,692,216,China
PD41485a,26138,48,1046,251,China
PD41486a,21751,70,894,580,China
PD41487a,8673,29,935,134,China
PD41488a,9342,15,1074,273,China
PD41489a,7543,14,709,133,China
PD41490a,7475,26,795,222,China
PD41491a,7412,14,460,73,China
PD41492a,10732,32,703,305,China
PD41493a,42319,260,2184,632,China
PD41494a,9444,29,872,209,China
PD41495a,10042,33,890,215,China
PD41496a,22525,60,1535,288,China
PD41497a,22159,35,412,198,China
PD41498a,9458,21,367,188,China
PD41499a,14246,51,1304,1110,China
PD41500a,9916,20,507,445,China
PD41502a,5783,16,225,146,China
PD41503a,1904,5,115,66,China
PD41504a,23813,40,891,152,China
PD41505a,12787,42,781,575,China
PD41506a,27302,227,2607,783,China
PD41507a,11650,40,854,440,China
PD41508a,19944,55,897,167,China
PD41509a,8713,35,471,177,China
PD41510a,10988,18,441,96,China
PD41511a,12962,59,955,4,China
PD41512a,15311,45,1069,463,China
PD41700a,6733,14,428,155,Japan
PD41701a,27141,34,1297,255,Japan
PD41702a,9829,23,499,181,Japan
PD41703a,9056,35,748,219,Japan
PD41704a,12978,76,737,271,Japan
PD41705a,7577,46,402,600,Japan
PD41706a,15148,66,1599,10,Japan
PD41707a,10034,83,1001,165,Japan
PD41709a,8136,44,824,283,Japan
PD41710a,18513,92,638,206,Japan
PD41711a,7121,43,290,201,Japan
PD41712a,6011,22,187,412,Japan
PD41713a,15530,69,592,358,Japan
PD41714a,13207,116,664,403,Japan
PD41715a,6748,22,383,439,Japan
PD41717a,13217,81,1223,397,Japan
PD41718a,5732,13,227,50,Japan
PD41719a,9543,41,762,291,Japan
PD41720a,11711,102,856,220,Japan
PD41722a,10779,83,779,389,Japan
PD41725a,11828,102,979,484,Japan
PD41728a,7025,15,623,147,Japan
PD41729a,9120,62,837,405,Japan
PD41730a,4357,13,189,116,Japan
PD41731a,1825,5,27,69,Japan
PD41734a,11220,34,491,275,Japan
PD41737a,5959,14,525,235,Japan
PD41739a,2856,14,78,119,Japan
PD41740a,6764,32,648,182,Japan
PD41741a,8825,35,355,270,Japan
PD41742a,1523,15,38,113,Japan
PD41743a,8075,16,275,190,Japan
PD41744a,8909,44,1472,534,Japan
PD41746a,10930,36,1104,335,Japan
PD41747a,16466,52,697,498,Japan
PD41748a,11856,39,374,114,Japan
PD41749a,11490,61,673,398,Japan
PD42838a,10028,40,1060,188,Iran
PD42839a,16678,37,826,216,Iran
PD42840a,14874,29,1523,187,Iran
PD42841a,17535,61,813,216,Iran
PD42842a,13748,38,1043,2,Iran
PD42843a,22650,81,1195,224,Iran
PD42844a,17244,51,568,271,Iran
PD42845a,7784,27,705,102,Iran
PD42846a,9410,39,699,181,Iran
PD42847a,12481,49,1153,213,Iran
PD42848a,19415,247,2380,381,Iran
PD42849a,14887,63,725,216,Iran
PD42850a,12102,32,1439,260,Iran
PD42852a,19849,42,1569,166,Iran
PD42853a,19686,31,633,143,Iran
PD42854a,34106,68,946,574,Iran
PD42855a,9391,43,433,212,Tanzania
PD42856a,3028,5,234,73,Tanzania
PD42858a,7471,22,416,463,Tanzania
PD42859a,2847,6,81,124,China
PD42861a,8881,18,920,103,Malawi
PD42862a,18203,38,749,170,Malawi
PD42863a,12063,59,1109,10,Malawi
PD42864a,13977,59,782,339,Malawi
PD42865a,7483,9,461,420,Malawi
PD42866a,21393,84,1270,401,Malawi
PD42867a,4810,15,447,137,Malawi
PD42868a,5162,10,259,97,Malawi
PD42869a,14169,61,1194,284,Malawi
PD42870a,8869,13,875,156,Malawi
PD42871a,11433,40,321,172,Malawi
PD42872a,7976,31,640,226,Malawi
PD42873a,13784,77,1148,336,Malawi
PD43304a,11516,39,850,239,Iran
PD43305a,3336,5,89,56,Iran
PD43306a,19626,73,1838,241,Iran
PD43307a,8748,29,869,256,China
PD43308a,21965,32,1045,298,China
PD43309a,7323,24,544,345,China
PD43310a,21522,13,27869,52,China
PD43311a,17256,36,994,462,China
PD43312a,14565,41,401,365,China
PD43313a,9541,26,706,254,China
PD43314a,9584,21,889,287,China
PD43315a,9704,42,791,94,China
PD43316a,9474,34,789,226,China
PD43317a,4320,12,346,61,China
PD43318a,14506,66,968,326,China
PD43319a,7178,29,442,285,China
PD43320a,11713,18,773,201,China
PD43321a,10800,28,474,93,China
PD43322a,9008,32,744,184,China
PD43323a,12374,30,1334,268,China
PD43324a,11777,32,767,264,China
PD43326a,9414,23,565,343,China
PD43327a,8831,24,1029,170,China
PD43328a,9071,28,672,263,China
PD43329a,6314,25,437,90,China
PD43330a,16266,55,869,321,China
PD43331a,34933,60,809,375,China
PD43333a,39990,67,504,212,China
PD43334a,16020,57,1328,330,China
PD43335a,16017,36,1386,84,China
PD43336a,8033,25,392,111,China
PD43337a,51010,191,1521,370,China
PD43338a,8648,22,463,162,China
PD43339a,14631,63,838,228,China
PD43340a,20494,175,928,147,China
PD43341a,12296,42,790,251,China
PD43342a,11550,35,1156,267,China
PD43343a,14149,30,1210,163,China
PD43344a,18570,57,866,629,China
PD43345a,7757,27,385,350,China
PD43346a,20047,89,1818,476,China
PD43347a,9417,30,723,789,China
PD43348a,14191,19,949,6,China
PD43349a,12039,48,682,149,China
PD43350a,8477,22,908,121,China
PD43351a,7673,20,438,175,China
PD43352a,13648,38,984,328,China
PD43353a,13289,33,506,72,China
PD43354a,9678,27,606,150,China
PD43355a,13981,31,1266,332,China
PD43356a,10439,34,574,285,China
PD43357a,32293,50,651,277,China
PD43358a,7215,13,344,78,China
PD43359a,50192,79,941,335,China
PD43360a,7518,17,502,102,China
PD43361a,14295,45,981,329,China
PD43362a,17851,113,1079,301,China
PD43363a,30970,228,2600,393,China
PD43364a,12863,62,813,118,China
PD43365a,8337,19,1055,307,China
PD43366a,11476,31,1301,291,China
PD43367a,9533,22,615,162,China
PD43368a,15203,69,766,310,China
PD43369a,21035,48,853,339,China
PD43370a,15329,14,341,250,China
PD43371a,8093,27,703,233,China
PD43372a,33532,173,1402,801,China
PD43373a,7763,28,347,261,China
PD43374a,15485,63,929,422,China
PD43777a,25601,43,472,46,Iran
PD43779a,19425,77,1658,253,Iran
PD43780a,12920,34,1108,358,Iran
PD43782a,6685,20,724,594,Iran
PD43783a,12393,46,1323,274,Iran
PD43785a,13011,32,707,267,Iran
PD43786a,19326,45,463,249,Iran
PD43787a,12930,34,901,80,Iran
PD43789a,10817,36,1150,557,Iran
PD43790a,6977,33,519,157,Iran
PD43791a,55751,40,64358,159,Iran
PD43792a,6924,23,363,114,Iran
PD43793a,7997,20,401,142,Iran
PD43795a,25362,82,996,464,Iran
PD43796a,6256,12,759,589,Iran
PD43798a,10498,29,1865,168,Iran
PD43800a,11497,35,485,270,Iran
PD43802a,31405,171,943,316,Iran
PD43803a,2717,4,251,17,Iran
PD43806a,15097,107,1826,306,Iran
PD43807a,3883,12,228,99,Iran
PD43809a,16874,98,481,321,Iran
PD43810a,19893,85,1240,138,Iran
PD43811a,31080,39,45143,45,Iran
PD43812a,15611,46,1212,402,Iran
PD43813a,7822,13,1263,179,Kenya
PD43815a,12826,43,1027,485,Kenya
PD43816a,16091,71,866,497,Kenya
PD43817a,9226,44,724,161,Tanzania
PD43818a,8399,34,814,197,Tanzania
PD43819a,10716,34,970,154,Tanzania
PD44659a,8565,28,572,97,Iran
PD44660a,25239,65,1970,362,Iran
PD44661a,15401,48,1557,420,Iran
PD44662a,7343,28,743,361,Iran
PD44663a,16978,55,1219,425,Iran
PD44664a,21202,49,663,375,Tanzania
PD44665a,13382,77,767,536,Tanzania
PD44666a,6727,14,628,355,Tanzania
PD44668a,5466,12,356,293,Tanzania
PD44669a,17364,169,1240,6,Tanzania
PD44670a,5348,11,378,3,Tanzania
PD44671a,8896,39,596,223,Tanzania
PD44672a,2763,7,167,109,Tanzania
PD44674a,13818,26,1286,231,Tanzania
PD44675a,9783,39,836,636,Tanzania
PD44676a,5842,21,494,99,Tanzania
PD44678a,1321,4,67,27,Malawi
PD44679a,4965,18,259,178,Malawi
PD44681a,7505,23,440,409,Malawi
PD44682a,11103,33,915,426,Malawi
PD44683a,9968,28,697,529,Malawi
PD44684a,11556,32,1121,399,Malawi
PD44685a,16239,48,990,251,Malawi
PD44686a,5396,17,413,265,Malawi
PD44687a,21513,83,1202,269,Malawi
PD44688a,13013,20,449,159,Malawi
PD44689a,7539,27,417,218,Brazil
PD44690a,22759,70,1857,577,Iran
PD44754a,8020,31,552,261,UK
PD44755a,18072,29,624,161,UK
PD44756a,13315,77,777,293,UK
PD44757a,2859,8,110,159,UK
PD45472a,12772,73,841,556,Malawi
PD45473a,5851,22,730,272,Malawi
PD45474a,26376,26,16528,66,Malawi
PD45475a,3493,4,161,110,Malawi
PD45476a,1191,3,69,38,Malawi
PD45477a,14045,33,1865,278,Malawi
PD45479a,2832,7,195,123,Malawi
PD45480a,12536,81,739,191,Malawi
PD45481a,7899,45,657,340,Malawi
PD45482a,13327,41,1025,471,Iran
PD45483a,10275,25,633,260,Iran
PD45484a,6857,62,470,191,Brazil
PD45485a,21180,49,906,139,Brazil
PD45486a,9557,46,773,120,Brazil
PD45487a,12130,84,555,166,Brazil
PD45488a,5003,26,338,103,Brazil
PD45489a,9305,85,1481,615,Brazil
PD45490a,8864,55,639,219,Brazil
PD45491a,5839,18,525,236,Brazil
PD45492a,13165,56,934,329,Brazil
PD45493a,12084,35,1374,279,Brazil
PD45494a,16028,69,1614,890,Brazil
PD45495a,7929,67,796,786,Brazil
PD45496a,4681,24,345,5,Brazil
PD45497a,5533,16,487,169,Malawi
PD45498a,6256,13,493,79,Malawi
PD45499a,15837,58,1394,227,Malawi
PD45502a,6858,22,539,298,Malawi
PD45503a,5488,36,411,198,Brazil
PD46987a,9475,45,721,403,Malawi
PD46988a,7466,13,689,96,Malawi
PD46989a,18475,121,1312,295,Malawi
PD46990a,14786,23,795,257,Malawi
PD46991a,20351,121,2304,701,Malawi
PD46992a,7992,17,907,354,Malawi
PD46993a,17746,33,1298,14,Malawi
PD46994a,10160,33,1366,447,Malawi
PD46996a,6132,16,374,218,Malawi
PD46997a,19161,36,550,211,Malawi
PD46998a,4852,18,346,153,Malawi
PD47000a,9732,57,461,400,Malawi
PD47001a,9536,55,769,9,Malawi
PD47002a,3095,3,200,217,Malawi
PD47003a,8288,37,7844,385,Malawi
PD47005a,11602,48,806,197,Malawi
PD47006a,4565,17,486,273,Malawi
PD47007a,6968,11,857,409,Malawi
PD47008a,12073,74,1019,273,Malawi
PD47010a,19183,28,795,102,Malawi
PD47011a,8201,37,666,194,Malawi
PD47012a,9406,40,435,205,Malawi
PD47013a,13588,40,672,285,Malawi
PD47015a,14480,164,800,249,Brazil
PD47021a,14377,53,675,185,Brazil
PD47022a,6611,33,279,136,Brazil
PD47023a,4321,30,371,122,Brazil
PD47024a,11951,51,840,213,Brazil
PD47025a,19816,75,1496,365,Brazil
PD47026a,15303,61,917,325,Brazil
PD47027a,15653,43,637,215,Brazil
PD47028a,10943,84,665,298,Brazil
PD47031a,8779,38,301,112,Brazil
PD47033a,15144,66,819,212,Brazil
PD47034a,14550,88,952,417,Brazil
PD47035a,8851,47,1117,226,Brazil
PD47036a,13582,108,600,221,Brazil
PD47038a,12758,102,1083,253,Brazil
PD47265a,6374,15,592,87,UK
PD47266a,6632,16,487,38,UK
PD47267a,16202,44,785,389,UK