Type,country,SBS1,SBS2,SBS3,SBS4,SBS5,SBS7a,SBS7b,SBS7c,SBS7d,SBS8,SBS9,SBS10a,SBS10b,SBS12,SBS13,SBS14,SBS15,SBS16,SBS17a,SBS17b,SBS18,SBS20,SBS21,SBS22,SBS26,SBS28,SBS30,SBS31,SBS33,SBS34,SBS35,SBS36,SBS37,SBS39,SBS40,SBS44,SBS56,SBS96V,SBS96X,SBS96Z,SBS96AA,SBS96AB,SBS96AF,SBS96AG
PD37727a,Kenya,0.049098581,0.036001487,0,0,0,0,0.049015712,0,0,0.149319573,0,0,0,0,0,0,0,0,0.056051957,0.130013973,0.196675441,0,0,0,0,0,0,0,0,0,0,0,0.103324767,0.132165453,0,0.098333057,0,0,0,0,0,0,0,0
PD37728a,Kenya,0.078978336,0.104598905,0,0,0,0,0,0,0,0,0,0,0,0,0.118312234,0.05411194,0,0,0,0,0.155816302,0,0,0,0,0,0,0,0,0,0,0,0,0,0.488182283,0,0,0,0,0,0,0,0,0
PD37729a,Kenya,0.035818059,0.135118157,0,0,0.288799222,0,0,0,0,0.101518859,0,0,0,0,0.196197572,0,0,0,0,0,0,0,0,0,0,0,0,0,0,0,0,0,0,0,0,0,0,0.242548131,0,0,0,0,0,0
PD37730a,Kenya,0.057087668,0.081379694,0.389831993,0,0,0,0,0,0,0,0,0,0,0,0.090974818,0,0,0.11617901,0,0,0.137872705,0,0,0,0,0,0,0,0,0.04571681,0,0,0,0,0,0.080957301,0,0,0,0,0,0,0,0
PD37731a,Kenya,0,0.325751506,0,0,0,0,0,0,0,0,0,0,0,0,0.674248494,0,0,0,0,0,0,0,0,0,0,0,0,0,0,0,0,0,0,0,0,0,0,0,0,0,0,0,0,0
PD37733a,Kenya,0.048699638,0.070919069,0,0,0.248755595,0,0.041998093,0,0,0.15148025,0,0,0,0,0.11591718,0,0,0,0,0.036396987,0.101995894,0,0,0,0,0,0,0,0,0,0,0,0.110177737,0,0,0.073659556,0,0,0,0,0,0,0,0
PD37734a,Kenya,0.092176228,0.095404509,0,0,0,0,0.06955476,0,0,0.191783008,0,0,0,0,0.109424851,0,0,0.09193615,0,0,0.225529534,0,0,0,0,0,0,0,0,0,0,0,0,0,0,0.12419096,0,0,0,0,0,0,0,0
PD37735a,Kenya,0.081774932,0.106812545,0,0,0.351976343,0,0,0,0,0.106701879,0,0,0,0,0.101379717,0,0,0,0,0,0.158644306,0,0,0,0,0,0,0,0,0,0,0,0,0,0,0,0,0,0.092710278,0,0,0,0,0
PD37737a,Kenya,0.038603927,0.056504873,0.31623497,0,0.188992914,0,0,0,0,0,0,0,0,0,0.132842845,0,0,0,0,0,0.237709729,0,0,0,0,0,0,0,0,0.029110741,0,0,0,0,0,0,0,0,0,0,0,0,0,0
PD37738a,Kenya,0.070704073,0.030062421,0,0,0.414282281,0,0,0,0,0.145229134,0,0,0,0,0.057217622,0,0,0,0,0,0.169513066,0,0,0,0,0,0,0,0,0,0,0,0,0,0,0,0,0,0.112991403,0,0,0,0,0
PD37739a,Kenya,0.094957445,0.022658334,0,0,0.238625866,0,0,0,0,0.167589806,0,0,0,0,0.034888352,0,0,0,0,0,0.162804761,0,0,0,0,0,0.055315355,0,0,0,0,0,0.100081612,0.123078469,0,0,0,0,0,0,0,0,0,0
PD37740a,Kenya,0.055876967,0.305768226,0,0,0,0,0,0,0,0.183198636,0,0,0,0,0.311753975,0,0,0,0,0.037603257,0,0,0,0,0.105798941,0,0,0,0,0,0,0,0,0,0,0,0,0,0,0,0,0,0,0
PD37741a,Kenya,0.075393204,0.182264655,0,0,0,0,0,0,0,0,0,0,0,0,0.32177995,0,0,0,0,0,0.212764868,0,0,0,0,0,0.072558707,0,0,0,0,0,0.135238617,0,0,0,0,0,0,0,0,0,0,0
PD37742a,Kenya,0.072596725,0.058778437,0,0,0,0,0.051705101,0,0,0.125100952,0,0,0,0,0.07744355,0,0,0.05377295,0,0.041870924,0.17448116,0,0,0,0,0,0,0,0,0,0,0,0.100363134,0.139407746,0,0.104479321,0,0,0,0,0,0,0,0
PD37743a,Kenya,0.054758089,0.098112206,0.229709983,0,0.447816479,0,0,0,0,0,0,0,0,0,0.169603243,0,0,0,0,0,0,0,0,0,0,0,0,0,0,0,0,0,0,0,0,0,0,0,0,0,0,0,0,0
PD37745a,Kenya,0.114730687,0.072141977,0,0,0.461626215,0,0,0,0,0,0,0,0,0,0.09360091,0,0.05211606,0,0,0,0.20578415,0,0,0,0,0,0,0,0,0,0,0,0,0,0,0,0,0,0,0,0,0,0,0
PD37746a,Kenya,0.06051277,0.084048359,0,0,0.438744552,0,0,0,0,0.11296512,0,0,0,0,0.104492601,0,0,0,0,0,0.199236598,0,0,0,0,0,0,0,0,0,0,0,0,0,0,0,0,0,0,0,0,0,0,0
PD37747a,Kenya,0.06376817,0,0,0,0,0,0,0,0,0,0,0.024413471,0,0,0,0,0,0,0,0,0,0,0,0,0,0,0,0,0,0,0,0,0,0,0.832418605,0.079399754,0,0,0,0,0,0,0,0
PD37748a,Kenya,0.136282859,0.105294768,0,0,0.280645766,0,0,0,0,0,0,0,0,0,0.073419858,0,0,0,0,0,0.368539048,0,0,0,0,0,0,0,0,0.0358177,0,0,0,0,0,0,0,0,0,0,0,0,0,0
PD37749a,Kenya,0.061255125,0.062078832,0,0,0.352679213,0,0,0,0,0,0,0,0,0,0.114796676,0,0,0,0,0.026707328,0.382482825,0,0,0,0,0,0,0,0,0,0,0,0,0,0,0,0,0,0,0,0,0,0,0
PD37751a,Kenya,0.127633844,0.03973236,0,0,0.502707452,0,0,0,0,0.146707983,0,0,0,0,0.084286287,0,0,0,0,0,0,0,0,0,0,0,0,0,0.098932074,0,0,0,0,0,0,0,0,0,0,0,0,0,0,0
PD37752a,Kenya,0.069530146,0.038551849,0,0,0.48243655,0,0,0,0,0.175169503,0,0,0,0,0.040608803,0,0.047651007,0,0,0,0,0,0,0,0,0,0,0,0,0.044556716,0,0.101495425,0,0,0,0,0,0,0,0,0,0,0,0
PD37753a,Kenya,0.049931748,0.052984408,0,0,0.303376001,0,0,0,0,0,0,0,0,0,0.075646689,0.040430941,0,0,0,0.037459704,0,0,0,0,0,0,0,0,0,0.033474484,0,0,0,0,0.406696026,0,0,0,0,0,0,0,0,0
PD37754a,Kenya,0.101343059,0.047977591,0,0,0,0,0,0,0,0,0,0,0,0,0.038839391,0,0,0,0,0,0.209978727,0,0,0,0,0,0,0,0,0,0,0,0,0,0.601861233,0,0,0,0,0,0,0,0,0
PD37756a,Kenya,0.052370508,0.123169734,0,0,0.372907285,0,0,0,0,0.177242524,0,0,0,0,0.12355438,0,0.05734669,0.093408879,0,0,0,0,0,0,0,0,0,0,0,0,0,0,0,0,0,0,0,0,0,0,0,0,0,0
PD37757a,Kenya,0.092402968,0.138089111,0.246998527,0,0.256135026,0,0,0,0,0,0,0,0,0,0.120823938,0,0,0,0,0,0.14555043,0,0,0,0,0,0,0,0,0,0,0,0,0,0,0,0,0,0,0,0,0,0,0
PD39480a,Kenya,0.059770929,0.141935423,0.246970028,0,0.235997666,0,0,0,0,0,0,0,0,0,0.235035624,0,0,0,0,0,0.08029033,0,0,0,0,0,0,0,0,0,0,0,0,0,0,0,0,0,0,0,0,0,0,0
PD39481a,Kenya,0.089503856,0.128221627,0,0,0,0,0.067414006,0,0,0,0,0,0,0,0.136318172,0,0,0.076103746,0,0,0.258712897,0,0,0,0,0,0,0,0,0,0,0,0,0,0,0.120112404,0,0,0,0.123613293,0,0,0,0
PD39482a,Kenya,0.058491997,0.097164856,0.322799137,0,0.200940952,0,0,0,0,0,0,0,0,0,0.186675703,0,0,0,0,0,0.097881167,0,0,0,0,0,0,0,0.036046188,0,0,0,0,0,0,0,0,0,0,0,0,0,0,0
PD39483a,Kenya,0.061983126,0.055214374,0.302994943,0,0.286420238,0,0,0,0,0,0,0,0,0,0.125633335,0,0,0,0,0,0.137644026,0,0,0,0,0,0,0,0,0.030109958,0,0,0,0,0,0,0,0,0,0,0,0,0,0
PD39484a,Kenya,0.070646387,0.051673166,0,0,0.327477515,0,0,0,0,0.13914256,0,0,0,0,0.078264942,0,0,0,0,0.055843748,0.090608383,0,0,0,0,0,0,0,0,0,0,0,0,0,0,0,0,0.071726529,0.114616771,0,0,0,0,0
PD39485a,Kenya,0.075733494,0.024518329,0,0,0.207454003,0,0,0,0,0,0,0,0,0,0.034639201,0,0,0,0,0,0.133319282,0,0,0,0,0,0,0.063116043,0,0,0,0,0,0,0.461219647,0,0,0,0,0,0,0,0,0
PD39486a,Kenya,0.065529721,0.078447523,0.431692425,0,0,0,0,0,0,0,0,0,0,0,0.219678442,0,0,0,0,0,0.204651888,0,0,0,0,0,0,0,0,0,0,0,0,0,0,0,0,0,0,0,0,0,0,0
PD39487a,Kenya,0.076977253,0.158325614,0,0,0.271562684,0,0,0,0,0,0,0,0,0,0.282473167,0,0,0,0,0,0.210661282,0,0,0,0,0,0,0,0,0,0,0,0,0,0,0,0,0,0,0,0,0,0,0
PD39488a,Kenya,0.092145434,0.179713081,0,0,0.385402749,0,0,0,0,0,0,0,0,0,0.215020781,0,0,0,0,0,0.127717954,0,0,0,0,0,0,0,0,0,0,0,0,0,0,0,0,0,0,0,0,0,0,0
PD39489a,Kenya,0.088854642,0.149478648,0,0,0.170708185,0,0,0,0,0,0,0,0,0,0.185988754,0,0,0,0,0,0.139391315,0,0,0,0,0,0.091648971,0.079194605,0,0,0,0,0,0,0,0.09473488,0,0,0,0,0,0,0,0
PD39490a,Kenya,0.135289411,0.080382807,0,0,0.419153202,0,0,0,0,0,0,0,0,0,0.098941641,0,0,0,0,0,0.266232939,0,0,0,0,0,0,0,0,0,0,0,0,0,0,0,0,0,0,0,0,0,0,0
PD39491a,Kenya,0.046237552,0.186564729,0,0,0,0,0,0,0,0,0,0,0,0,0.368691171,0,0,0,0,0.055788283,0,0,0,0,0,0,0,0,0,0,0,0,0,0.23387279,0,0,0,0.108845477,0,0,0,0,0,0
PD39492a,Kenya,0.122261908,0.029368825,0,0,0.237706271,0,0,0,0,0,0,0,0,0,0.044156152,0,0,0,0,0,0.217301627,0,0,0,0,0,0,0,0,0,0,0,0,0,0.349205218,0,0,0,0,0,0,0,0,0
PD39493a,Iran,0,0,0,0,0,0,0,0,0,0,0,0,0,0,0,0,1,0,0,0,0,0,0,0,0,0,0,0,0,0,0,0,0,0,0,0,0,0,0,0,0,0,0,0
PD39494a,Tanzania,0.088177275,0.078414692,0,0,0,0,0.068635899,0,0,0.149935408,0.123046331,0,0,0,0.086155011,0,0,0.086186751,0,0,0.15629428,0,0,0,0,0,0,0,0.052937563,0,0,0,0,0,0,0.11021679,0,0,0,0,0,0,0,0
PD39495a,Tanzania,0.071405937,0.052864011,0,0,0,0,0,0,0,0,0,0,0,0,0.057883314,0,0,0.086206696,0,0,0.166434022,0,0,0,0,0,0,0,0,0.028417346,0,0,0,0,0.461643408,0.075145266,0,0,0,0,0,0,0,0
PD39496a,Tanzania,0.097630028,0.056934127,0,0,0.430695373,0,0,0,0,0.145988484,0,0,0,0,0.141288537,0,0,0,0,0,0.127463451,0,0,0,0,0,0,0,0,0,0,0,0,0,0,0,0,0,0,0,0,0,0,0
PD39497a,Tanzania,0.0811297,0.062749099,0.269052783,0,0.252030599,0,0,0,0,0,0.081493697,0,0,0,0.086028247,0,0,0,0,0,0.167515876,0,0,0,0,0,0,0,0,0,0,0,0,0,0,0,0,0,0,0,0,0,0,0
PD39499a,Tanzania,0.061621648,0.093561436,0,0,0.332585901,0,0,0,0,0.107531393,0,0,0,0,0.172859592,0,0,0,0,0,0.123433407,0,0,0,0,0,0,0,0,0,0,0,0,0,0,0,0,0,0,0,0.108406624,0,0,0
PD39500a,Tanzania,0.05579196,0.253091181,0,0,0,0,0,0,0,0.12796387,0,0,0,0,0.376637677,0,0,0,0,0,0,0,0,0,0,0,0.079350197,0,0,0,0,0,0.107165116,0,0,0,0,0,0,0,0,0,0,0
PD39501a,Tanzania,0.088285754,0,0,0,0,0,0,0,0,0,0,0,0,0,0,0,0,0,0,0,0,0,0,0,0,0,0,0,0.187496699,0,0,0,0,0,0.724217546,0,0,0,0,0,0,0,0,0
PD39502a,Tanzania,0.093560285,0.025493648,0.252617542,0,0.317245129,0,0,0,0,0,0,0,0,0,0.026360546,0,0,0,0,0,0.186962296,0,0,0,0,0,0,0,0,0,0,0,0,0,0,0,0,0,0,0.097760553,0,0,0,0
PD39505a,Kenya,0.073132034,0.02979094,0,0,0.193467372,0,0,0,0,0.119437315,0.117558372,0,0,0,0.082091289,0,0,0,0,0,0.237427321,0,0,0,0,0,0,0,0,0,0,0,0,0.147095358,0,0,0,0,0,0,0,0,0,0
PD39506a,Kenya,0.10664123,0.035535818,0,0,0,0,0,0,0,0,0,0,0,0,0.033141942,0,0,0,0,0,0.240583893,0,0,0,0,0,0,0,0,0,0,0,0,0,0.584097117,0,0,0,0,0,0,0,0,0
PD39507a,Kenya,0.053465867,0.173176281,0.332059971,0,0,0,0,0,0,0,0,0,0,0,0.228623286,0,0,0,0,0,0.148373595,0,0,0,0,0,0.064301002,0,0,0,0,0,0,0,0,0,0,0,0,0,0,0,0,0
PD39508a,Kenya,0.058041339,0.086772369,0,0,0.455695191,0,0,0,0,0.143573174,0,0,0,0,0.102329464,0,0,0,0,0,0.153588462,0,0,0,0,0,0,0,0,0,0,0,0,0,0,0,0,0,0,0,0,0,0,0
PD39510a,Kenya,0.066681081,0.077820443,0,0,0.356700906,0,0,0,0,0.152609312,0,0,0,0,0.113459657,0,0,0,0,0,0.140357774,0,0,0,0,0,0,0,0,0,0,0,0,0,0,0,0,0,0,0,0.092370827,0,0,0
PD39511a,Kenya,0.090002702,0.036331983,0,0,0.566924701,0,0,0,0,0,0,0,0,0,0.039442244,0,0,0,0,0,0.267298371,0,0,0,0,0,0,0,0,0,0,0,0,0,0,0,0,0,0,0,0,0,0,0
PD39512a,Kenya,0.072866821,0.280774947,0,0,0.393317691,0,0,0,0,0,0,0,0,0,0.253040541,0,0,0,0,0,0,0,0,0,0,0,0,0,0,0,0,0,0,0,0,0,0,0,0,0,0,0,0,0
PD39514a,Kenya,0.123359535,0.119118725,0,0,0.424497278,0,0,0,0,0,0,0,0,0,0.108251356,0,0,0,0,0.042226379,0.182546727,0,0,0,0,0,0,0,0,0,0,0,0,0,0,0,0,0,0,0,0,0,0,0
PD39515a,Kenya,0.063625391,0.101890828,0,0,0.498506236,0,0,0,0,0,0,0,0,0,0.168099703,0,0,0,0,0,0.167877842,0,0,0,0,0,0,0,0,0,0,0,0,0,0,0,0,0,0,0,0,0,0,0
PD39517a,Kenya,0.105147595,0.098709014,0,0,0,0,0,0,0,0.133745369,0,0,0,0,0.139725282,0,0,0,0,0,0.226005969,0,0,0,0,0,0,0,0,0,0,0,0,0.181119397,0,0.115547375,0,0,0,0,0,0,0,0
PD39518a,Kenya,0.079413395,0.02963214,0,0,0.376047615,0,0,0,0,0.137033379,0,0,0,0,0.055058372,0,0,0,0,0,0.192630447,0,0,0,0,0,0,0,0,0,0,0,0,0,0,0,0,0,0.130184651,0,0,0,0,0
PD39519a,Kenya,0.045121611,0.041297395,0,0,0,0,0.05853611,0,0,0.224720898,0,0,0,0.114762091,0.049436234,0,0,0.071348543,0,0,0.132861287,0,0,0,0,0,0,0,0,0,0,0,0,0.164428042,0,0.097487789,0,0,0,0,0,0,0,0
PD39520a,Kenya,0.093500507,0.240026318,0,0,0.309510931,0,0,0,0,0,0,0,0,0,0.356962245,0,0,0,0,0,0,0,0,0,0,0,0,0,0,0,0,0,0,0,0,0,0,0,0,0,0,0,0,0
PD39521a,Kenya,0.090850891,0.02856913,0,0,0.574319479,0,0,0,0,0,0,0,0,0,0.066044888,0,0,0,0,0,0.192404233,0,0,0,0,0,0,0,0,0.047811378,0,0,0,0,0,0,0,0,0,0,0,0,0,0
PD39522a,Kenya,0.048670017,0,0,0,0.387625674,0,0,0,0,0.168000123,0,0,0,0,0.059408281,0,0,0,0,0,0.070418418,0,0,0,0,0,0.064758412,0,0,0,0,0,0,0.201119075,0,0,0,0,0,0,0,0,0,0
PD39523a,Iran,0.105024343,0.233777275,0.326107247,0,0,0,0,0,0,0,0,0,0,0,0.207855119,0,0,0,0,0.035066816,0.092169199,0,0,0,0,0,0,0,0,0,0,0,0,0,0,0,0,0,0,0,0,0,0,0
PD39955a,Iran,0.176736705,0.049957491,0,0,0.211075121,0,0,0,0,0,0,0,0,0,0.04226303,0,0.045049613,0,0,0,0.101318822,0,0,0,0,0,0,0,0,0.028256447,0,0,0,0,0.34534277,0,0,0,0,0,0,0,0,0
PD39957a,Iran,0.065694288,0.059932232,0,0,0,0,0.045865614,0,0,0.119862851,0.167917035,0,0,0.118857078,0.068364709,0,0.061742506,0,0,0,0.123242212,0,0,0,0,0,0,0,0,0,0,0,0,0.168521475,0,0,0,0,0,0,0,0,0,0
PD39958a,Iran,0.06942145,0.067042186,0,0,0.280264746,0,0,0,0,0.148204525,0,0,0,0,0.079493439,0,0,0,0,0,0.232954748,0,0,0,0,0,0,0,0,0,0,0,0,0,0,0,0,0,0.122618906,0,0,0,0,0
PD39959a,Iran,0.097427298,0.038470309,0,0,0,0,0,0,0,0.25915023,0,0,0,0,0.05317131,0,0,0,0.1152766,0.385958147,0,0,0,0,0,0.050546106,0,0,0,0,0,0,0,0,0,0,0,0,0,0,0,0,0,0
PD39960a,Iran,0.124255002,0.095481918,0,0,0.380203797,0,0,0,0,0,0,0,0,0,0.072728312,0,0,0,0,0,0.327330971,0,0,0,0,0,0,0,0,0,0,0,0,0,0,0,0,0,0,0,0,0,0,0
PD39961a,Iran,0.135028731,0.058525059,0,0,0,0,0,0,0,0,0,0,0,0,0.040927233,0,0,0,0,0,0.244282829,0,0,0,0,0,0,0,0,0,0,0,0,0,0.521236148,0,0,0,0,0,0,0,0,0
PD39962a,Iran,0.130363954,0.205193462,0,0,0,0,0,0,0,0,0,0,0,0,0.258309236,0,0,0,0,0,0.131609489,0,0,0,0,0,0.095535472,0,0,0,0,0,0.178988386,0,0,0,0,0,0,0,0,0,0,0
PD39963a,Iran,0.097707702,0.114820848,0.285708053,0,0.246546753,0,0,0,0,0,0,0,0,0,0.151560985,0,0,0,0,0,0.103655659,0,0,0,0,0,0,0,0,0,0,0,0,0,0,0,0,0,0,0,0,0,0,0
PD39964a,Iran,0.093650225,0.072351111,0.440054259,0,0.235226998,0,0,0,0,0,0,0,0,0,0.158717406,0,0,0,0,0,0,0,0,0,0,0,0,0,0,0,0,0,0,0,0,0,0,0,0,0,0,0,0,0
PD39965a,Iran,0.059050674,0.046231855,0,0,0,0,0,0,0,0,0,0,0,0,0.074257534,0,0,0,0,0,0.112402431,0,0,0,0,0,0,0,0,0,0,0,0,0,0.708057505,0,0,0,0,0,0,0,0,0
PD39966a,Iran,0.092685601,0.280845477,0,0,0,0,0,0,0,0.171355462,0,0,0,0,0.366212073,0,0,0,0,0,0,0,0,0,0,0,0.088901386,0,0,0,0,0,0,0,0,0,0,0,0,0,0,0,0,0
PD39967a,Iran,0.076592913,0.433235821,0,0,0,0,0,0,0,0,0,0,0,0,0.490171266,0,0,0,0,0,0,0,0,0,0,0,0,0,0,0,0,0,0,0,0,0,0,0,0,0,0,0,0,0
PD39969a,Iran,0,0.283022976,0,0,0,0,0,0,0,0,0,0,0,0,0.570394671,0,0,0,0,0,0,0,0,0,0,0,0,0,0,0,0,0,0.146582354,0,0,0,0,0,0,0,0,0,0,0
PD39970a,Iran,0.136260623,0.043973153,0,0,0,0,0,0,0,0,0,0,0,0,0.053412246,0,0.062606035,0,0,0,0.108206925,0,0,0,0,0,0,0,0,0,0,0,0,0,0.595541019,0,0,0,0,0,0,0,0,0
PD39971a,Iran,0.102988104,0.090313984,0.291040537,0,0.235512883,0,0,0,0,0,0,0,0,0,0.081710956,0,0,0,0,0,0.170321098,0,0,0,0,0,0,0,0,0.028112439,0,0,0,0,0,0,0,0,0,0,0,0,0,0
PD39972a,Iran,0.105434161,0.081947984,0,0,0.470596478,0,0,0,0,0,0,0,0,0,0.122607684,0,0,0,0,0,0.111376637,0,0,0,0,0,0,0,0,0,0,0,0,0,0,0,0,0,0,0,0.108037057,0,0,0
PD39973a,Iran,0.12767335,0.146703716,0,0,0.407144985,0,0,0,0,0,0,0,0,0,0.134854222,0,0,0,0,0,0.183623728,0,0,0,0,0,0,0,0,0,0,0,0,0,0,0,0,0,0,0,0,0,0,0
PD39974a,Iran,0.113376636,0.097573273,0.234557083,0,0.20956856,0,0,0,0,0,0.101096643,0,0,0,0.175198387,0,0,0,0,0,0.068629418,0,0,0,0,0,0,0,0,0,0,0,0,0,0,0,0,0,0,0,0,0,0,0
PD39975a,Iran,0.166645564,0.074648437,0,0,0,0,0.069560866,0,0,0,0,0,0,0,0.032759678,0,0,0,0,0,0.127583813,0,0,0,0,0,0,0,0,0,0,0,0,0,0.430224606,0.098577036,0,0,0,0,0,0,0,0
PD39976a,Iran,0.103510888,0.049942416,0,0,0.35686362,0,0.036039433,0,0,0.132014468,0,0,0,0,0.033806694,0,0.04391879,0,0,0,0.154791082,0,0,0,0,0,0,0,0,0,0,0,0,0,0,0,0,0,0.089112608,0,0,0,0,0
PD39977a,Iran,0.111814422,0.031185963,0,0,0,0,0,0,0,0,0,0,0,0,0.037853768,0,0,0,0,0,0.116854752,0,0,0,0,0,0,0,0,0,0,0,0,0,0.702291095,0,0,0,0,0,0,0,0,0
PD39978a,Iran,0.092030672,0,0,0,0,0,0,0,0,0,0,0,0,0,0,0,0,0,0,0,0.133901665,0,0.069734758,0.052335207,0,0,0,0,0,0,0,0,0,0,0.651997698,0,0,0,0,0,0,0,0,0
PD39979a,Iran,0.144496048,0.056278207,0,0,0.552383013,0,0,0,0,0,0,0,0,0,0.112010129,0,0,0,0,0,0.134832603,0,0,0,0,0,0,0,0,0,0,0,0,0,0,0,0,0,0,0,0,0,0,0
PD39981a,Iran,0.073565382,0.105243534,0,0,0.189964128,0,0,0,0,0,0,0,0,0,0.137766308,0,0,0,0,0,0.188496171,0,0,0,0,0,0,0,0,0,0,0,0,0,0.304964476,0,0,0,0,0,0,0,0,0
PD39983a,Iran,0.06619045,0.029845155,0,0,0.317016675,0,0,0.043987538,0,0,0,0,0,0,0.061532414,0,0,0,0,0,0.282345788,0,0.044283082,0.054427045,0,0,0,0,0,0,0,0,0,0,0,0,0,0,0,0.100371853,0,0,0,0
PD39984a,Iran,0.097594819,0.219745454,0,0,0,0,0,0,0,0,0,0,0,0,0.375704561,0,0,0,0,0,0.17260487,0,0,0,0,0,0,0,0,0,0,0,0.134350296,0,0,0,0,0,0,0,0,0,0,0
PD39985a,Iran,0.088900867,0.197435824,0,0,0.38709968,0,0,0,0,0,0,0,0,0,0.167910024,0,0,0,0,0,0.158653605,0,0,0,0,0,0,0,0,0,0,0,0,0,0,0,0,0,0,0,0,0,0,0
PD39987a,Iran,0.095023979,0.037652222,0.261722838,0,0.222285176,0,0,0,0,0,0,0,0,0,0.080648493,0,0,0,0,0,0.1603505,0,0,0,0,0,0,0,0,0.027844448,0,0,0.114472345,0,0,0,0,0,0,0,0,0,0,0
PD39988a,Iran,0.042873435,0.066448856,0,0,0,0,0.038076909,0,0,0.161592335,0,0,0,0,0.071605912,0,0,0,0,0.028419345,0.345937134,0,0,0,0,0,0,0,0,0,0,0,0.1549354,0,0,0.090110673,0,0,0,0,0,0,0,0
PD39989a,Iran,0.086664661,0.092373895,0,0,0,0,0,0,0,0,0,0,0,0.133821122,0.112831817,0,0,0,0,0.025600593,0.328276654,0,0,0,0,0,0.074216147,0,0,0,0,0,0,0.146215112,0,0,0,0,0,0,0,0,0,0
PD39990a,Iran,0.104199562,0.199069749,0,0,0.3275641,0,0,0,0,0,0,0,0,0,0.251293148,0,0,0,0,0,0.117873441,0,0,0,0,0,0,0,0,0,0,0,0,0,0,0,0,0,0,0,0,0,0,0
PD39991a,Iran,0.071379018,0.131166941,0,0,0.384494351,0,0,0,0,0,0,0,0,0,0.176915961,0,0,0,0,0,0.156700588,0,0,0,0,0,0,0,0,0,0,0,0,0,0,0,0,0.07934314,0,0,0,0,0,0
PD39992a,Iran,0.067796117,0.044394123,0.361248629,0,0,0,0,0,0,0,0,0,0,0.093918117,0.059699579,0,0,0,0,0,0.260884842,0,0,0,0,0,0,0,0,0,0,0,0,0,0,0,0,0,0.112058594,0,0,0,0,0
PD39993a,Iran,0.056944145,0.031535469,0.658789228,0,0,0,0,0,0,0,0.101733425,0,0,0,0.062892222,0,0,0,0,0,0.088105511,0,0,0,0,0,0,0,0,0,0,0,0,0,0,0,0,0,0,0,0,0,0,0
PD39994a,Iran,0.081732613,0.076318025,0,0,0,0,0,0,0,0,0,0,0,0.075856879,0.108840335,0,0,0,0,0,0,0,0,0,0,0,0.281530724,0,0,0,0,0,0,0,0.375721425,0,0,0,0,0,0,0,0,0
PD39996a,Iran,0.123926623,0.091974368,0,0,0.426384669,0,0,0,0,0.144265468,0,0,0,0,0.096285185,0,0,0,0,0,0.117163687,0,0,0,0,0,0,0,0,0,0,0,0,0,0,0,0,0,0,0,0,0,0,0
PD39998a,Iran,0.097727001,0.192634176,0,0,0.302878872,0,0,0,0,0,0,0,0,0,0.240183111,0,0,0,0,0,0.166576839,0,0,0,0,0,0,0,0,0,0,0,0,0,0,0,0,0,0,0,0,0,0,0
PD39999a,Iran,0.090697872,0.065209532,0,0,0.183195936,0,0.0367661,0,0,0.125146401,0,0,0,0,0.122481297,0,0,0,0,0,0.092108458,0,0,0,0,0,0,0,0,0,0,0,0.096641889,0.119497738,0,0.068254776,0,0,0,0,0,0,0,0
PD40000a,Iran,0.209607151,0,0,0,0,0,0.052733155,0,0,0,0,0,0,0,0,0,0.148263418,0,0,0,0,0.100431824,0,0,0.245273725,0,0,0,0,0,0,0,0,0,0,0.243690726,0,0,0,0,0,0,0,0
PD40001a,Iran,0.092187371,0.103304735,0,0,0.381601193,0,0,0,0,0,0,0,0,0,0.089608343,0,0,0,0,0,0.202700679,0,0,0,0,0,0,0,0,0,0,0,0,0,0,0,0,0,0,0.130597678,0,0,0,0
PD40004a,Iran,0.095526236,0.026567154,0,0,0.230556267,0,0,0,0,0,0,0,0,0,0.040658225,0,0,0,0.081933758,0.191173507,0.165163009,0,0,0,0,0,0,0,0,0.032557338,0,0,0,0,0,0,0,0.135864506,0,0,0,0,0,0
PD40006a,Iran,0.110223954,0.033205876,0,0,0,0,0,0,0,0,0,0,0,0.061603273,0.052038379,0,0,0,0,0,0.17516512,0,0,0,0,0,0,0,0,0,0,0,0,0,0.567763398,0,0,0,0,0,0,0,0,0
PD40007a,Iran,0.074340216,0.282287983,0,0,0,0,0,0,0,0,0,0,0,0,0.465896491,0,0,0,0,0,0.177475311,0,0,0,0,0,0,0,0,0,0,0,0,0,0,0,0,0,0,0,0,0,0,0
PD40009a,Iran,0.052888717,0.094748978,0.666080234,0,0,0,0,0,0,0,0,0,0,0,0.186282071,0,0,0,0,0,0,0,0,0,0,0,0,0,0,0,0,0,0,0,0,0,0,0,0,0,0,0,0,0
PD40010a,Iran,0.14484114,0.024414397,0,0,0,0,0,0,0,0,0,0,0,0,0.079052461,0,0,0,0,0,0,0,0.043393611,0,0,0,0,0,0,0.030671531,0,0,0,0,0.67762686,0,0,0,0,0,0,0,0,0
PD40011a,Iran,0.086812141,0,0,0,0,0,0,0,0,0,0,0,0,0,0,0,0,0,0,0,0.185769197,0,0.044194468,0,0,0,0,0,0,0.027555383,0,0,0,0,0.578464239,0.077204571,0,0,0,0,0,0,0,0
PD40012a,Iran,0.097494925,0.180784198,0,0,0.387559101,0,0,0,0,0,0,0,0,0,0.119145334,0,0,0,0,0,0.215016441,0,0,0,0,0,0,0,0,0,0,0,0,0,0,0,0,0,0,0,0,0,0,0
PD40013a,Iran,0.085593455,0.03907538,0,0,0,0,0.046880868,0,0,0.145070517,0.120583331,0,0,0,0.042855903,0,0,0,0,0,0.209417831,0,0,0,0,0,0,0,0,0,0,0,0.074147311,0.123258467,0,0.113116938,0,0,0,0,0,0,0,0
PD40015a,Iran,0.102076735,0.080179453,0,0,0.455971688,0,0,0,0,0.120260661,0,0,0,0,0.071686442,0,0,0,0,0,0.169825022,0,0,0,0,0,0,0,0,0,0,0,0,0,0,0,0,0,0,0,0,0,0,0
PD40017a,Iran,0.091333783,0,0,0,0.190431961,0,0,0,0,0,0,0,0,0,0,0,0,0,0,0,0.193578546,0,0,0,0,0,0,0,0,0.029158099,0,0,0,0,0.495497611,0,0,0,0,0,0,0,0,0
PD40018a,Iran,0.064750996,0,0,0,0,0,0,0,0,0,0,0,0,0,0,0,0,0,0,0,0,0,0.099931344,0,0,0,0,0,0,0.032885054,0,0,0.099737453,0,0.702695154,0,0,0,0,0,0,0,0,0
PD40019a,Iran,0.13320417,0.057848287,0.266533611,0,0.299764207,0,0,0,0,0,0,0,0,0,0.048265041,0,0,0,0,0,0.194384684,0,0,0,0,0,0,0,0,0,0,0,0,0,0,0,0,0,0,0,0,0,0,0
PD40020a,Iran,0.103098722,0.115054438,0,0,0.346014888,0,0,0,0,0,0,0,0,0,0.168703745,0,0,0,0,0,0.267128207,0,0,0,0,0,0,0,0,0,0,0,0,0,0,0,0,0,0,0,0,0,0,0
PD40021a,Iran,0.103003518,0,0,0,0,0,0,0,0,0,0,0,0,0,0,0,0,0.054530234,0,0,0,0,0.067657147,0,0,0,0,0,0,0,0,0,0,0,0.7748091,0,0,0,0,0,0,0,0,0
PD40023a,Iran,0,0.141818807,0.46838358,0,0,0,0,0,0,0,0,0,0,0,0.389797613,0,0,0,0,0,0,0,0,0,0,0,0,0,0,0,0,0,0,0,0,0,0,0,0,0,0,0,0,0
PD40024a,Iran,0.077582178,0.031305495,0,0,0,0,0,0,0,0,0,0,0,0,0.097236612,0,0,0,0,0,0.204918889,0,0,0,0,0,0,0,0,0,0,0,0,0,0.452545565,0,0,0,0.136411261,0,0,0,0,0
PD40025a,Iran,0.056792289,0.054684598,0.762698735,0,0,0,0,0,0,0,0,0,0,0,0.125824378,0,0,0,0,0,0,0,0,0,0,0,0,0,0,0,0,0,0,0,0,0,0,0,0,0,0,0,0,0
PD40026a,Tanzania,0.065183128,0.041413279,0.339293429,0,0,0,0.031648046,0,0,0,0,0,0,0,0.061497094,0,0,0.065157833,0,0,0.19766449,0,0,0.051745357,0.082085108,0,0,0,0,0,0,0,0,0,0,0.064312236,0,0,0,0,0,0,0,0
PD40027a,Tanzania,0.038702027,0.104608106,0,0,0.391261598,0,0,0,0,0.155659539,0,0,0,0,0.184958961,0,0,0,0,0,0,0,0,0,0,0,0,0,0,0,0,0,0,0.124809769,0,0,0,0,0,0,0,0,0,0
PD40028a,Tanzania,0.089631374,0.057244475,0,0,0.319456933,0,0,0,0,0,0,0,0,0,0.051147836,0,0,0,0,0,0.352771536,0,0,0,0,0,0.129747846,0,0,0,0,0,0,0,0,0,0,0,0,0,0,0,0,0
PD40030a,Tanzania,0.082578206,0.109034272,0,0,0.42955919,0,0,0,0,0,0,0,0,0,0.135339505,0,0,0,0,0,0.243488828,0,0,0,0,0,0,0,0,0,0,0,0,0,0,0,0,0,0,0,0,0,0,0
PD40031a,Tanzania,0.136008389,0,0,0,0,0,0.064483004,0,0,0,0,0,0,0,0,0.124134386,0.146981535,0,0,0,0,0.126219688,0,0,0.122663061,0,0,0,0,0,0,0,0,0,0,0.279509936,0,0,0,0,0,0,0,0
PD40032a,Tanzania,0.077672553,0.106117048,0,0,0.47999784,0,0,0,0,0.138154523,0,0,0,0,0.198058036,0,0,0,0,0,0,0,0,0,0,0,0,0,0,0,0,0,0,0,0,0,0,0,0,0,0,0,0,0
PD40033a,Kenya,0.06257552,0.020232473,0,0,0,0,0,0,0,0.124286811,0,0.028095006,0,0,0.050909368,0,0.053234278,0,0,0,0,0,0,0,0,0,0,0,0,0,0,0,0,0,0.660666543,0,0,0,0,0,0,0,0,0
PD40035a,Kenya,0.09428795,0.167751159,0,0,0.325007625,0,0,0,0,0,0,0,0,0,0.260972229,0,0,0,0,0,0.151981038,0,0,0,0,0,0,0,0,0,0,0,0,0,0,0,0,0,0,0,0,0,0,0
PD40037a,Kenya,0.049457915,0.068118834,0,0,0.34074795,0,0,0,0,0.144964535,0,0,0,0,0.105803155,0,0,0,0,0.03225098,0.202334412,0,0,0,0,0,0.056322218,0,0,0,0,0,0,0,0,0,0,0,0,0,0,0,0,0
PD40038a,Kenya,0.059500802,0.108196262,0,0,0.482987936,0,0,0,0,0,0,0,0,0,0.078409202,0,0,0,0,0,0.270905798,0,0,0,0,0,0,0,0,0,0,0,0,0,0,0,0,0,0,0,0,0,0,0
PD40039a,Kenya,0.045798811,0.041497803,0,0,0.457062878,0,0,0,0,0,0,0.019675049,0,0,0.049706984,0,0.066093376,0,0,0,0.132534157,0.047627445,0,0,0,0,0,0,0,0.033451344,0,0,0,0,0,0,0,0,0,0,0.106552152,0,0,0
PD40040a,Kenya,0.132943986,0.086169045,0,0,0,0,0,0,0,0,0,0,0,0,0.078168691,0,0,0,0,0,0.150793034,0,0,0,0,0,0,0,0,0,0,0,0,0,0.47181173,0.080113514,0,0,0,0,0,0,0,0
PD40041a,Kenya,0.12283682,0,0.212700945,0,0,0,0,0,0,0,0,0,0,0,0.02912469,0.043933406,0.045198075,0.116791931,0,0,0.179354285,0,0,0,0,0,0.09420663,0,0,0.038679983,0,0,0.117173235,0,0,0,0,0,0,0,0,0,0,0
PD40316a,Iran,0.077735321,0.050982811,0.24879684,0,0.255917862,0,0,0,0,0,0.138941341,0,0,0,0.05137778,0,0.041866027,0,0,0,0.134382018,0,0,0,0,0,0,0,0,0,0,0,0,0,0,0,0,0,0,0,0,0,0,0
PD40317a,Iran,0.115027208,0,0,0,0,0,0,0,0,0,0,0,0,0,0.070602838,0,0,0,0,0,0.122146962,0,0,0,0,0,0,0,0,0.043729763,0,0,0,0,0.648493228,0,0,0,0,0,0,0,0,0
PD40318a,Iran,0.095649772,0.07851838,0,0,0,0,0.068784809,0,0,0.104019467,0,0,0,0,0.079623102,0,0,0,0,0,0.226943096,0,0,0,0,0,0,0,0,0,0,0,0.090916124,0.143141462,0,0.112403787,0,0,0,0,0,0,0,0
PD40319a,Iran,0.06191085,0.075763219,0.52365025,0,0,0,0,0,0,0,0.143274828,0,0,0.071936692,0.123464161,0,0,0,0,0,0,0,0,0,0,0,0,0,0,0,0,0,0,0,0,0,0,0,0,0,0,0,0,0
PD40320a,Iran,0.099466857,0.135179493,0,0,0.310270398,0,0,0,0,0.122633945,0,0,0,0,0.170516243,0,0,0,0,0,0.161933064,0,0,0,0,0,0,0,0,0,0,0,0,0,0,0,0,0,0,0,0,0,0,0
PD40321a,Iran,0.100599397,0.18048699,0,0,0.275654886,0,0,0,0,0,0,0,0,0,0.196727677,0,0,0,0,0,0.246531049,0,0,0,0,0,0,0,0,0,0,0,0,0,0,0,0,0,0,0,0,0,0,0
PD40322a,Iran,0.178654498,0.042765051,0.440419053,0,0,0,0,0,0,0,0.150131289,0,0,0,0.080930261,0,0,0,0,0,0.107099847,0,0,0,0,0,0,0,0,0,0,0,0,0,0,0,0,0,0,0,0,0,0,0
PD40323a,Iran,0.083337875,0.12247481,0,0,0.383216077,0,0,0,0,0,0,0,0,0,0.146041592,0,0,0,0,0,0.264929646,0,0,0,0,0,0,0,0,0,0,0,0,0,0,0,0,0,0,0,0,0,0,0
PD40324a,Iran,0,0.332792648,0,0,0,0,0,0,0,0,0,0,0,0,0.604281847,0,0,0,0,0.062925506,0,0,0,0,0,0,0,0,0,0,0,0,0,0,0,0,0,0,0,0,0,0,0,0
PD40325a,Iran,0.124742967,0.033269599,0,0,0.449429255,0,0,0,0,0,0,0,0,0,0,0,0,0,0.0267592,0.054228294,0.11587368,0,0,0,0,0.045212633,0,0,0,0.041921794,0,0,0,0,0,0,0,0,0.108562577,0,0,0,0,0
PD40326a,Iran,0.066176274,0.087106715,0,0,0.276806303,0,0,0,0,0.118575022,0,0,0,0,0.152704138,0,0,0,0,0,0.160369036,0,0,0,0,0,0,0,0,0,0,0,0,0.138262512,0,0,0,0,0,0,0,0,0,0
PD40327a,Iran,0.150002322,0.034239289,0,0,0,0,0,0,0,0,0,0,0,0.078835809,0.08898665,0,0,0,0,0,0,0,0,0,0,0,0,0,0,0,0,0,0,0,0.64793593,0,0,0,0,0,0,0,0,0
PD40328a,Iran,0.039838855,0.299694538,0,0,0.24646163,0,0,0,0,0,0,0,0,0,0.414004978,0,0,0,0,0,0,0,0,0,0,0,0,0,0,0,0,0,0,0,0,0,0,0,0,0,0,0,0,0
PD40329a,Iran,0.128125447,0.092812775,0,0,0.337740459,0,0,0,0,0,0,0,0,0,0.124024719,0,0,0,0,0,0.317296599,0,0,0,0,0,0,0,0,0,0,0,0,0,0,0,0,0,0,0,0,0,0,0
PD40330a,Iran,0.090014532,0.082839809,0,0,0.29110552,0,0,0,0,0,0,0,0,0,0.102094361,0,0,0,0,0,0.141611191,0,0,0,0,0,0,0,0,0,0,0,0,0,0.292334587,0,0,0,0,0,0,0,0,0
PD40331a,Iran,0.061652375,0.054946702,0.290121163,0,0,0,0,0,0,0,0,0.021565415,0,0,0.08991165,0,0,0,0,0,0.130308919,0,0,0,0,0,0,0,0,0,0,0,0,0,0.351493777,0,0,0,0,0,0,0,0,0
PD40332a,Iran,0.039299812,0.199872336,0,0,0,0,0,0,0,0.180829507,0,0,0,0,0.352004709,0,0,0,0,0.043838205,0,0,0,0,0,0,0.066529706,0,0,0,0,0,0.117625725,0,0,0,0,0,0,0,0,0,0,0
PD40333a,Iran,0.112481613,0.175296614,0,0,0.306412117,0,0,0,0,0,0,0,0,0,0.285622351,0,0,0,0,0,0.120187305,0,0,0,0,0,0,0,0,0,0,0,0,0,0,0,0,0,0,0,0,0,0,0
PD40334a,Iran,0.091573985,0.123551909,0.437089164,0,0,0,0,0,0,0,0,0,0,0,0.141004335,0,0,0,0,0,0.206780607,0,0,0,0,0,0,0,0,0,0,0,0,0,0,0,0,0,0,0,0,0,0,0
PD40335a,Iran,0.062729968,0.091808786,0,0,0.435424662,0,0,0,0,0,0,0,0,0,0.164921537,0,0,0,0,0,0.09998825,0,0.086167531,0.058959266,0,0,0,0,0,0,0,0,0,0,0,0,0,0,0,0,0,0,0,0
PD40336a,Iran,0.091932583,0.050874714,0.326015441,0,0.257186341,0,0,0,0,0,0,0,0,0,0.092861839,0,0,0,0,0,0.181129082,0,0,0,0,0,0,0,0,0,0,0,0,0,0,0,0,0,0,0,0,0,0,0
PD40337a,Iran,0.105521306,0.056083946,0.293294667,0,0.357179764,0,0,0,0,0,0,0,0,0,0.08340199,0,0,0,0,0.023478213,0.081040115,0,0,0,0,0,0,0,0,0,0,0,0,0,0,0,0,0,0,0,0,0,0,0
PD40338a,Iran,0.146302605,0.082949474,0.213512031,0,0.263114616,0,0,0,0,0,0,0,0,0,0.125149195,0,0,0,0,0,0.168972079,0,0,0,0,0,0,0,0,0,0,0,0,0,0,0,0,0,0,0,0,0,0,0
PD40339a,Iran,0.103979857,0.296343365,0,0,0,0,0,0,0,0.182197471,0,0,0,0,0.417479306,0,0,0,0,0,0,0,0,0,0,0,0,0,0,0,0,0,0,0,0,0,0,0,0,0,0,0,0,0
PD40340a,Iran,0.079403269,0.083046619,0.306982025,0,0.178696653,0,0,0,0,0,0,0,0,0,0.080285095,0,0.0446028,0,0,0.018814867,0.103364152,0,0,0,0,0,0,0,0,0.023771777,0,0,0.081032741,0,0,0,0,0,0,0,0,0,0,0
PD40343a,Iran,0.080463285,0.204542206,0,0,0,0,0,0,0,0.193944457,0,0,0,0,0.297327642,0,0,0,0,0,0,0,0,0,0,0,0.089711745,0,0,0,0,0,0.134010664,0,0,0,0,0,0,0,0,0,0,0
PD40345a,Iran,0.165037624,0.130326127,0,0,0.418143638,0,0,0,0,0,0,0,0,0,0.163329137,0,0,0,0,0,0.123163474,0,0,0,0,0,0,0,0,0,0,0,0,0,0,0,0,0,0,0,0,0,0,0
PD40346a,Iran,0.092882003,0.064374158,0,0,0,0,0,0,0,0,0,0,0,0,0.066137574,0,0,0,0,0,0.153471081,0,0,0,0,0,0,0,0,0,0,0,0,0,0.543399877,0.079735307,0,0,0,0,0,0,0,0
PD40348a,Iran,0.102249466,0.110557542,0,0,0.320731191,0,0,0,0,0,0,0,0,0,0.190739791,0,0,0,0,0,0.13692694,0,0,0,0,0,0,0,0,0,0,0,0,0,0,0,0,0,0.138795071,0,0,0,0,0
PD40349a,Iran,0.124823866,0.103540267,0.269407013,0,0.211669386,0,0,0,0,0,0,0,0,0,0.143496107,0,0,0,0,0,0.147063361,0,0,0,0,0,0,0,0,0,0,0,0,0,0,0,0,0,0,0,0,0,0,0
PD40350a,Iran,0.06375938,0.278394254,0,0,0,0,0,0,0,0.180902752,0,0,0,0,0.394802227,0,0,0,0,0,0,0,0,0,0,0,0.082141387,0,0,0,0,0,0,0,0,0,0,0,0,0,0,0,0,0
PD40351a,Iran,0.086058262,0.148792921,0.381346402,0,0,0,0,0,0,0,0,0.035611093,0,0,0.178266381,0,0.053827074,0,0,0,0.081475705,0,0,0,0,0,0,0,0,0.034622162,0,0,0,0,0,0,0,0,0,0,0,0,0,0
PD40352a,Iran,0.074730504,0.234594558,0,0,0,0,0,0,0,0.171036362,0,0,0,0,0.341914585,0,0,0,0,0,0,0,0,0,0,0,0.074963531,0,0,0,0,0,0.102760459,0,0,0,0,0,0,0,0,0,0,0
PD40353a,Iran,0.111774501,0.174065997,0,0,0.356001821,0,0,0,0,0,0,0,0,0,0.219536226,0,0,0,0,0,0.138621456,0,0,0,0,0,0,0,0,0,0,0,0,0,0,0,0,0,0,0,0,0,0,0
PD40354a,Iran,0.093875932,0.08804272,0,0,0.49285866,0,0,0,0,0,0,0,0,0,0.113991252,0,0,0,0,0,0.211231435,0,0,0,0,0,0,0,0,0,0,0,0,0,0,0,0,0,0,0,0,0,0,0
PD40355a,Iran,0.069977808,0.040735397,0.310573474,0,0.283092392,0,0,0,0,0,0,0,0,0,0.060259579,0,0,0,0,0,0.196109465,0,0,0,0,0,0,0,0,0.039251885,0,0,0,0,0,0,0,0,0,0,0,0,0,0
PD40356a,Iran,0.075219106,0.044828547,0,0,0,0,0.083593572,0,0.034777777,0,0,0,0,0,0.054163327,0,0,0,0,0,0,0,0,0.048679842,0,0,0,0,0,0,0,0,0,0,0.559643108,0.09909472,0,0,0,0,0,0,0,0
PD40357a,Iran,0.110074123,0.112851808,0,0,0.357314937,0,0,0,0,0,0,0,0,0,0.160861509,0,0,0,0,0,0.13376594,0,0,0,0,0,0,0,0,0,0,0,0,0,0,0,0,0,0.125131682,0,0,0,0,0
PD40358a,Iran,0.069068295,0.292864939,0,0,0.184489823,0,0,0,0,0,0,0,0.042036901,0,0.330191377,0,0,0,0,0,0.081348664,0,0,0,0,0,0,0,0,0,0,0,0,0,0,0,0,0,0,0,0,0,0,0
PD40360a,Iran,0.05833892,0.436066234,0,0,0,0,0,0,0,0,0,0,0,0,0.505594845,0,0,0,0,0,0,0,0,0,0,0,0,0,0,0,0,0,0,0,0,0,0,0,0,0,0,0,0,0
PD40847a,Iran,0.083451481,0.10047876,0.268138884,0,0.26777429,0,0,0,0,0,0,0,0,0,0.098210594,0,0,0,0,0,0.181945991,0,0,0,0,0,0,0,0,0,0,0,0,0,0,0,0,0,0,0,0,0,0,0
PD40848a,Iran,0.09902592,0.098926174,0,0,0.29568328,0,0.049789761,0,0,0,0,0,0,0,0.034749028,0,0,0,0,0,0.347329639,0,0,0,0,0,0,0,0,0,0,0,0,0,0,0.074496198,0,0,0,0,0,0,0,0
PD40849a,Iran,0.132796706,0.032368828,0.19002968,0,0.180483807,0,0,0,0,0,0,0,0,0,0.043727612,0,0,0,0,0,0.301639892,0,0,0,0,0,0,0,0,0.025252553,0,0,0,0,0,0,0,0,0,0.093700921,0,0,0,0
PD40850a,Iran,0.074804337,0.164959828,0.524985234,0,0,0,0,0,0,0,0,0,0,0,0.235250601,0,0,0,0,0,0,0,0,0,0,0,0,0,0,0,0,0,0,0,0,0,0,0,0,0,0,0,0,0
PD40852a,Iran,0.086445323,0.113380399,0,0,0.477936345,0,0,0,0,0,0,0,0,0,0.117222822,0,0,0,0,0,0.20501511,0,0,0,0,0,0,0,0,0,0,0,0,0,0,0,0,0,0,0,0,0,0,0
PD40853a,Iran,0.045062301,0.136079807,0.31442499,0,0.20747506,0,0,0,0,0,0,0,0,0,0.2106415,0,0,0,0,0,0.086316342,0,0,0,0,0,0,0,0,0,0,0,0,0,0,0,0,0,0,0,0,0,0,0
PD40854a,Iran,0.08471647,0.08478136,0.437828472,0,0,0,0,0,0,0,0,0,0,0,0.164209335,0,0,0,0,0.051967891,0,0,0,0,0,0,0,0,0,0.032631541,0,0,0.143864932,0,0,0,0,0,0,0,0,0,0,0
PD40855a,Iran,0.133532622,0.059857089,0,0,0,0,0,0,0,0,0,0,0,0,0.074911444,0,0,0,0,0,0.266851293,0,0.040108022,0,0,0,0,0,0,0.029956204,0,0,0,0,0.394783327,0,0,0,0,0,0,0,0,0
PD40856a,Iran,0.064343491,0.179442634,0,0,0,0,0.046453933,0,0,0,0,0,0,0,0.177647791,0,0,0,0,0,0.261709224,0,0,0,0,0,0,0,0,0,0,0,0.075357925,0.113127375,0,0.081917627,0,0,0,0,0,0,0,0
PD40857a,Iran,0.098768275,0.129606487,0.423854365,0,0,0,0,0,0,0,0,0,0,0,0.162339474,0,0,0,0,0,0.092069412,0,0,0,0,0,0,0,0,0,0,0,0.093361987,0,0,0,0,0,0,0,0,0,0,0
PD40858a,Iran,0.081018588,0.090466771,0.191449529,0,0.281647731,0,0,0,0,0,0,0,0,0,0.093620349,0.040676739,0,0,0,0,0.192938715,0,0,0,0,0,0,0,0,0.028181577,0,0,0,0,0,0,0,0,0,0,0,0,0,0
PD40859a,Iran,0.089401504,0.047028456,0.297885661,0,0.238114353,0,0,0,0,0,0,0,0,0,0.049111034,0,0,0,0,0,0.278458991,0,0,0,0,0,0,0,0,0,0,0,0,0,0,0,0,0,0,0,0,0,0,0
PD40861a,Iran,0.060606798,0.079617245,0,0,0.386243245,0,0,0,0,0.199660931,0,0,0,0,0.188737055,0,0,0,0,0,0.085134726,0,0,0,0,0,0,0,0,0,0,0,0,0,0,0,0,0,0,0,0,0,0,0
PD40862a,Tanzania,0.079235248,0.086665396,0,0,0.32636931,0,0,0,0,0,0,0,0,0,0.121013585,0,0,0,0,0,0.386716461,0,0,0,0,0,0,0,0,0,0,0,0,0,0,0,0,0,0,0,0,0,0,0
PD40863a,Tanzania,0.103799707,0.059854529,0.25743352,0,0,0,0.060382509,0,0,0,0,0.028395036,0,0,0.028230654,0,0,0.049660168,0,0,0.271990356,0,0,0,0,0,0,0,0,0.033564826,0,0,0,0,0,0.106688696,0,0,0,0,0,0,0,0
PD40864a,Tanzania,0.181380074,0.057727864,0,0,0.455474042,0,0.059937724,0,0,0,0,0,0,0,0.042782674,0,0,0,0,0,0.202697622,0,0,0,0,0,0,0,0,0,0,0,0,0,0,0,0,0,0,0,0,0,0,0
PD40865a,Tanzania,0.064526806,0.100755281,0.212769619,0,0.203396547,0,0.046194418,0,0,0,0,0,0,0,0.110175304,0,0,0,0,0,0.155058701,0,0,0,0,0,0,0,0,0.030974545,0,0,0,0,0,0.076148779,0,0,0,0,0,0,0,0
PD40866a,Kenya,0.066091141,0.044322435,0.330110738,0,0.206791482,0,0,0,0,0,0,0.022311938,0,0,0.061026552,0,0,0,0,0.029653717,0.21365739,0,0,0,0,0,0,0,0,0.026034605,0,0,0,0,0,0,0,0,0,0,0,0,0,0
PD40867a,Kenya,0.05479141,0.173020283,0,0,0.352426832,0,0,0,0,0,0,0,0,0,0.297298878,0,0,0,0,0,0.122462597,0,0,0,0,0,0,0,0,0,0,0,0,0,0,0,0,0,0,0,0,0,0,0
PD40868a,Kenya,0.08513425,0.059512245,0,0,0,0,0,0,0,0,0,0,0,0,0.112775563,0,0,0,0,0,0.159657646,0,0,0,0,0,0,0,0,0,0,0,0,0,0.505891767,0.077028529,0,0,0,0,0,0,0,0
PD40869a,Kenya,0.059780093,0.030085616,0,0,0.567562876,0,0,0,0,0.155718097,0,0,0,0,0.039237055,0,0,0,0,0,0,0,0,0,0,0,0,0,0,0.039389464,0,0.108226798,0,0,0,0,0,0,0,0,0,0,0,0
PD41420a,China,0.084056963,0.162607166,0,0,0.385940687,0,0,0,0,0,0,0,0,0,0.101417798,0,0,0,0,0,0.265977385,0,0,0,0,0,0,0,0,0,0,0,0,0,0,0,0,0,0,0,0,0,0,0
PD41421a,China,0.07417648,0,0,0,0.19855234,0,0,0,0,0,0,0,0,0,0.059044877,0,0,0,0,0,0,0,0,0,0,0,0,0,0,0,0,0,0,0,0.449424777,0,0,0.0707556,0,0,0.148045926,0,0,0
PD41423a,China,0.058119637,0,0.301131106,0,0.35469623,0,0,0,0,0.1223005,0,0,0,0,0,0,0,0,0,0,0.080542501,0,0,0,0,0,0,0,0,0,0,0,0,0,0,0,0,0,0,0,0.083210026,0,0,0
PD41424a,China,0.110028037,0.121603789,0,0,0.452052846,0,0,0,0,0,0,0,0,0,0.168694613,0,0,0,0,0,0.147620715,0,0,0,0,0,0,0,0,0,0,0,0,0,0,0,0,0,0,0,0,0,0,0
PD41425a,China,0.088449227,0.146919318,0,0,0.3461881,0,0,0,0,0,0,0,0,0,0.232346791,0,0,0,0,0,0.186096565,0,0,0,0,0,0,0,0,0,0,0,0,0,0,0,0,0,0,0,0,0,0,0
PD41426a,China,0.079011123,0.167963069,0,0,0.286702873,0,0,0,0,0.102146907,0,0,0,0,0.202694245,0,0.097701328,0,0,0,0,0,0,0,0,0,0,0,0.063780455,0,0,0,0,0,0,0,0,0,0,0,0,0,0,0
PD41427a,China,0.082013812,0.093706124,0,0,0.505634591,0,0,0,0,0,0,0,0,0,0.136870232,0,0,0,0,0,0.181775241,0,0,0,0,0,0,0,0,0,0,0,0,0,0,0,0,0,0,0,0,0,0,0
PD41428a,China,0.072846599,0.045115434,0.288794553,0,0.272216332,0,0,0,0,0,0.164648805,0,0,0,0.080683533,0,0,0,0,0,0.075694746,0,0,0,0,0,0,0,0,0,0,0,0,0,0,0,0,0,0,0,0,0,0,0
PD41429a,China,0.095246151,0.160208111,0,0,0.252948151,0,0,0,0,0.115381972,0.111262916,0,0,0,0.135003905,0,0,0,0,0,0.129948792,0,0,0,0,0,0,0,0,0,0,0,0,0,0,0,0,0,0,0,0,0,0,0
PD41430a,China,0.063321604,0.158833392,0,0,0.320576168,0,0,0,0,0,0,0,0,0,0.33661961,0,0,0,0,0,0.120649226,0,0,0,0,0,0,0,0,0,0,0,0,0,0,0,0,0,0,0,0,0,0,0
PD41431a,China,0.131060798,0.11136106,0.337897547,0,0,0,0.049952482,0,0,0,0,0,0,0,0.042744349,0,0,0,0,0,0.18139262,0,0,0,0,0,0,0,0.045075538,0,0,0,0,0,0,0.100515607,0,0,0,0,0,0,0,0
PD41432a,China,0.05696142,0.036939369,0.305777021,0,0.250421655,0,0,0,0,0,0,0,0,0,0.051932792,0,0,0,0,0,0.107014847,0,0,0.138123072,0,0,0,0,0,0,0,0,0,0,0,0,0,0.052829824,0,0,0,0,0,0
PD41433a,China,0.067989006,0.085246907,0,0,0.477035592,0,0,0,0,0.184139587,0,0,0,0,0.185588907,0,0,0,0,0,0,0,0,0,0,0,0,0,0,0,0,0,0,0,0,0,0,0,0,0,0,0,0,0
PD41434a,China,0.075179423,0.202854301,0,0,0.340916634,0,0,0,0,0.15451481,0,0,0,0,0.226534833,0,0,0,0,0,0,0,0,0,0,0,0,0,0,0,0,0,0,0,0,0,0,0,0,0,0,0,0,0
PD41435a,China,0.076657245,0.048186508,0,0,0.260686629,0,0,0,0,0,0,0,0,0,0.045079964,0,0,0,0,0,0.12599195,0,0,0.093277016,0,0,0,0,0,0.025330884,0,0,0,0,0.324789804,0,0,0,0,0,0,0,0,0
PD41437a,China,0.096811553,0.060233464,0,0,0,0,0,0,0,0,0,0,0,0,0.063819439,0,0,0,0,0,0.115088425,0,0,0.074097534,0,0,0,0,0,0,0,0,0,0,0.589949585,0,0,0,0,0,0,0,0,0
PD41438a,China,0.08232836,0.07034053,0,0,0.343435024,0,0,0,0,0,0,0,0,0,0.121964599,0,0,0,0,0,0.144716015,0,0,0,0,0,0,0,0,0,0,0,0,0,0,0,0,0,0.135208427,0,0.102007046,0,0,0
PD41439a,China,0.077673053,0.092124273,0,0,0,0,0,0,0,0.255429389,0,0,0,0,0.181938389,0,0,0,0,0,0.082246735,0,0,0,0,0,0,0,0,0,0,0,0.125960924,0,0,0,0,0,0.184627238,0,0,0,0,0
PD41440a,China,0.132493577,0.039435953,0,0,0.444088118,0,0,0,0,0,0,0,0,0,0,0,0.067723865,0,0,0,0.316258486,0,0,0,0,0,0,0,0,0,0,0,0,0,0,0,0,0,0,0,0,0,0,0
PD41441a,China,0.077838336,0.157492375,0.208845121,0,0.283474519,0,0,0,0,0,0,0,0,0,0.149306625,0,0,0,0,0,0.123043024,0,0,0,0,0,0,0,0,0,0,0,0,0,0,0,0,0,0,0,0,0,0,0
PD41443a,China,0,0.197694055,0,0,0.353456427,0,0,0,0,0,0,0,0,0,0.448849518,0,0,0,0,0,0,0,0,0,0,0,0,0,0,0,0,0,0,0,0,0,0,0,0,0,0,0,0,0
PD41444a,China,0.052522708,0.108048407,0,0,0,0,0,0,0,0.146396775,0,0,0,0.069268204,0.15075078,0,0,0,0.039464398,0.230783192,0,0,0,0,0,0,0.053110184,0,0,0,0,0,0,0,0,0,0,0.149655351,0,0,0,0,0,0
PD41445a,China,0.058702527,0.207325483,0,0,0,0,0,0,0,0.176653815,0,0,0,0,0.378341885,0,0,0,0,0,0,0,0,0,0,0,0,0,0,0,0,0,0.178976291,0,0,0,0,0,0,0,0,0,0,0
PD41446a,China,0.091454447,0.156698277,0,0,0.330367256,0,0,0,0,0,0,0,0,0,0.30603128,0,0,0,0,0,0.11544874,0,0,0,0,0,0,0,0,0,0,0,0,0,0,0,0,0,0,0,0,0,0,0
PD41447a,China,0.085938489,0.11764985,0,0,0.278540829,0,0,0,0,0,0,0,0,0,0.17607319,0,0,0,0,0,0.185272041,0,0,0,0,0,0,0,0,0,0,0,0,0,0,0,0,0,0,0,0.156525601,0,0,0
PD41448a,China,0.05677296,0.158604734,0,0,0.336536999,0,0,0,0,0,0,0,0,0,0.2666285,0,0,0,0,0,0.181456806,0,0,0,0,0,0,0,0,0,0,0,0,0,0,0,0,0,0,0,0,0,0,0
PD41449a,China,0.071748548,0.110993926,0,0,0.444784552,0,0,0,0,0,0,0,0,0,0.152695277,0,0,0,0,0,0.219777698,0,0,0,0,0,0,0,0,0,0,0,0,0,0,0,0,0,0,0,0,0,0,0
PD41450a,China,0.118702986,0.07688996,0,0,0.281474657,0,0,0,0,0,0,0,0,0,0.068467433,0,0,0,0,0,0.454464963,0,0,0,0,0,0,0,0,0,0,0,0,0,0,0,0,0,0,0,0,0,0,0
PD41452a,China,0.042023688,0,0,0.222718946,0.562359803,0,0,0,0,0,0,0,0,0,0,0,0,0,0,0,0.172897563,0,0,0,0,0,0,0,0,0,0,0,0,0,0,0,0,0,0,0,0,0,0,0
PD41453a,China,0.061897918,0.145591669,0,0,0.485815781,0,0,0,0,0,0,0,0,0,0.306694632,0,0,0,0,0,0,0,0,0,0,0,0,0,0,0,0,0,0,0,0,0,0,0,0,0,0,0,0,0
PD41454a,China,0.067470297,0.061768291,0.271270108,0,0.240727243,0,0,0,0,0,0,0,0,0,0.092688432,0,0,0,0,0,0.190805404,0,0,0,0,0,0,0,0,0.024594247,0,0,0,0,0,0,0,0.050675978,0,0,0,0,0,0
PD41455a,China,0.05687657,0.035193649,0,0,0.411938034,0,0,0,0,0.169577325,0,0,0,0,0.054322771,0,0,0,0,0,0.075563783,0,0,0.087383431,0,0,0,0,0,0,0,0,0,0.109144438,0,0,0,0,0,0,0,0,0,0
PD41456a,China,0.09367001,0.07844141,0.358643881,0,0,0,0,0,0,0,0,0,0,0,0.054954001,0,0,0,0,0,0.324723122,0,0,0,0,0,0,0,0,0,0,0,0,0,0,0.089567575,0,0,0,0,0,0,0,0
PD41457a,China,0.116291877,0.04989713,0,0,0.249437694,0,0,0,0,0,0,0,0,0,0.03992579,0,0.050432283,0,0,0,0.1195837,0,0,0.040863215,0,0,0,0,0,0,0,0,0,0,0.333568312,0,0,0,0,0,0,0,0,0
PD41458a,China,0.114274821,0.131989811,0,0,0.435135466,0,0,0,0,0,0,0,0,0,0.137644159,0,0,0,0,0,0.180955743,0,0,0,0,0,0,0,0,0,0,0,0,0,0,0,0,0,0,0,0,0,0,0
PD41459a,China,0.100399655,0.110969157,0,0,0,0,0,0,0,0,0,0,0,0,0.150310282,0,0,0,0,0,0.230240354,0,0,0,0.087515715,0,0.070008589,0,0,0,0,0,0,0.174702803,0,0,0,0.075853446,0,0,0,0,0,0
PD41460a,China,0.123471042,0.089803428,0,0,0.456462898,0,0,0,0,0,0,0,0,0,0.097852355,0,0,0,0,0,0.232410277,0,0,0,0,0,0,0,0,0,0,0,0,0,0,0,0,0,0,0,0,0,0,0
PD41461a,China,0.108206758,0.046247251,0,0,0.442353105,0,0,0,0,0.135952105,0,0,0,0,0.111155634,0,0,0,0,0,0.156085148,0,0,0,0,0,0,0,0,0,0,0,0,0,0,0,0,0,0,0,0,0,0,0
PD41462a,China,0.08433415,0.184019857,0,0,0.389248623,0,0,0,0,0,0,0,0,0,0.173498388,0,0,0,0,0,0.133700364,0,0,0,0,0,0,0,0,0.035198619,0,0,0,0,0,0,0,0,0,0,0,0,0,0
PD41463a,China,0.087692167,0.104638354,0.3482818,0,0,0,0,0,0,0,0,0,0,0,0.208566822,0,0,0,0,0,0.250820857,0,0,0,0,0,0,0,0,0,0,0,0,0,0,0,0,0,0,0,0,0,0,0
PD41464a,China,0.067212655,0.131211645,0.306946089,0,0.216585733,0,0,0,0,0,0,0,0,0,0.179139636,0,0,0,0,0,0.098904243,0,0,0,0,0,0,0,0,0,0,0,0,0,0,0,0,0,0,0,0,0,0,0
PD41465a,China,0.062956757,0.388892688,0,0,0.283097026,0,0,0,0,0,0,0,0,0,0.26505353,0,0,0,0,0,0,0,0,0,0,0,0,0,0,0,0,0,0,0,0,0,0,0,0,0,0,0,0,0
PD41466a,Iran,0.064556175,0.120590793,0,0,0,0,0,0,0,0.221602957,0,0,0,0,0.142388783,0,0,0,0,0.077285947,0.083295523,0,0,0,0,0,0.099721628,0,0,0,0,0,0.190558195,0,0,0,0,0,0,0,0,0,0,0
PD41467a,Iran,0.056798686,0.049736528,0,0,0,0,0.044300361,0,0,0.161460186,0,0,0,0,0.045111306,0,0,0,0,0,0.34151169,0,0,0,0,0,0,0,0,0,0,0,0.094051555,0.127851277,0,0.079178411,0,0,0,0,0,0,0,0
PD41468a,Iran,0.075816625,0,0,0,0,0,0,0,0,0,0,0,0,0,0,0,0.047647457,0,0,0,0.137910879,0,0.049201793,0,0,0,0,0,0,0.033092596,0,0,0,0,0.65633065,0,0,0,0,0,0,0,0,0
PD41470a,Iran,0.095290299,0.030043274,0.409848635,0,0,0,0,0,0,0,0,0,0,0,0.036033015,0,0,0,0,0,0.198735898,0,0,0,0,0,0,0,0,0.024934056,0,0,0.10947464,0,0,0,0,0,0,0.095640183,0,0,0,0
PD41471a,Iran,0.094554009,0.058117382,0,0,0,0,0,0,0,0,0,0,0,0,0.056403713,0,0,0,0,0,0.144221741,0,0,0,0,0,0,0,0,0,0,0,0,0,0.580421474,0.06628168,0,0,0,0,0,0,0,0
PD41472a,Iran,0.102710883,0.07929939,0.28937999,0,0.300677304,0,0,0,0,0,0,0,0,0,0.08895582,0,0,0,0,0.057571642,0.081404971,0,0,0,0,0,0,0,0,0,0,0,0,0,0,0,0,0,0,0,0,0,0,0
PD41473a,Iran,0.173565054,0.102857026,0.214793402,0,0.285310693,0,0,0,0,0,0,0,0,0,0.132693652,0,0,0,0,0,0.090780173,0,0,0,0,0,0,0,0,0,0,0,0,0,0,0,0,0,0,0,0,0,0,0
PD41474a,Iran,0.075147349,0.376780171,0,0,0.305533646,0,0,0,0,0,0,0,0,0,0.155070931,0,0,0,0,0,0.087467903,0,0,0,0,0,0,0,0,0,0,0,0,0,0,0,0,0,0,0,0,0,0,0
PD41475a,Iran,0.111500793,0.092204749,0,0,0,0,0.070639917,0,0,0.120759446,0,0,0,0,0.063367971,0,0,0,0,0,0.175350522,0,0,0,0,0,0,0,0,0,0,0,0.116698778,0.126579071,0,0.122898753,0,0,0,0,0,0,0,0
PD41476a,Iran,0.048519147,0.190481487,0,0,0.342619004,0,0,0,0,0.133379851,0,0,0,0,0.28500051,0,0,0,0,0,0,0,0,0,0,0,0,0,0,0,0,0,0,0,0,0,0,0,0,0,0,0,0,0
PD41477a,Iran,0.096689656,0.185051554,0.247161421,0,0.185421234,0,0,0,0,0,0,0,0,0,0.208350147,0,0,0,0,0,0.077325989,0,0,0,0,0,0,0,0,0,0,0,0,0,0,0,0,0,0,0,0,0,0,0
PD41478a,Iran,0.071391107,0,0,0,0,0,0,0,0,0,0,0.025329928,0,0,0.027817749,0,0,0,0,0,0.387973893,0,0,0,0,0,0,0,0,0,0,0,0,0,0.487487323,0,0,0,0,0,0,0,0,0
PD41479a,Iran,0.036595997,0.063101424,0.440282484,0,0,0,0,0,0,0,0,0,0,0,0.161381637,0,0,0,0,0,0.160913888,0,0,0,0,0,0,0,0,0.031464172,0,0,0.106260398,0,0,0,0,0,0,0,0,0,0,0
PD41481a,Iran,0,0.258179004,0.287838641,0,0,0,0,0,0,0,0,0,0,0,0.453982355,0,0,0,0,0,0,0,0,0,0,0,0,0,0,0,0,0,0,0,0,0,0,0,0,0,0,0,0,0
PD41483a,China,0.053135078,0.10275891,0.274761334,0,0.209867276,0,0,0,0,0,0,0,0,0,0.196436243,0,0,0,0,0,0.163041158,0,0,0,0,0,0,0,0,0,0,0,0,0,0,0,0,0,0,0,0,0,0,0
PD41484a,China,0.08836252,0.17258616,0,0,0,0,0,0,0,0.223654039,0,0,0,0.118089457,0.256487568,0,0,0,0,0.058714781,0,0,0,0,0,0,0.082105476,0,0,0,0,0,0,0,0,0,0,0,0,0,0,0,0,0
PD41485a,China,0.065378489,0.306175621,0,0,0,0,0,0,0,0.184138554,0,0,0,0,0.369725394,0,0,0,0,0.074581941,0,0,0,0,0,0,0,0,0,0,0,0,0,0,0,0,0,0,0,0,0,0,0,0
PD41486a,China,0.051006901,0.189459492,0,0,0.401309002,0,0,0,0,0,0,0,0,0,0.31635289,0,0,0,0,0.041871715,0,0,0,0,0,0,0,0,0,0,0,0,0,0,0,0,0,0,0,0,0,0,0,0
PD41487a,China,0.131969271,0.035487184,0.272132187,0,0.298303979,0,0,0,0,0,0,0,0,0,0.031688537,0,0,0,0,0.02588886,0.110461103,0,0,0,0,0,0,0,0.051771915,0.042296965,0,0,0,0,0,0,0,0,0,0,0,0,0,0
PD41488a,China,0.165455172,0.063573219,0,0,0.388920591,0,0,0,0,0,0,0,0,0,0.045984833,0,0.050466288,0,0,0,0.285599896,0,0,0,0,0,0,0,0,0,0,0,0,0,0,0,0,0,0,0,0,0,0,0
PD41489a,China,0.150076433,0.026021236,0,0,0.263258202,0,0,0,0,0,0,0,0,0,0,0,0.046861788,0,0,0,0.222318918,0,0,0,0,0,0,0,0,0.033646979,0,0,0,0,0.257816444,0,0,0,0,0,0,0,0,0
PD41490a,China,0.135705167,0.044188806,0,0,0.243393981,0,0,0,0,0,0,0,0,0,0.054194101,0,0,0,0,0,0.239594956,0,0,0,0,0,0,0,0,0,0,0,0,0,0.282922989,0,0,0,0,0,0,0,0,0
PD41491a,China,0.101945689,0.149139763,0,0,0.401137217,0,0,0,0,0,0,0,0,0,0.232272745,0,0,0,0,0,0.115504587,0,0,0,0,0,0,0,0,0,0,0,0,0,0,0,0,0,0,0,0,0,0,0
PD41492a,China,0.08590547,0.144075624,0,0,0.404105724,0,0,0,0,0.124143328,0,0,0,0,0.141938331,0,0,0,0,0,0.099831522,0,0,0,0,0,0,0,0,0,0,0,0,0,0,0,0,0,0,0,0,0,0,0
PD41493a,China,0.032649627,0,0,0,0,0,0,0,0,0.142324372,0,0,0,0,0,0,0,0,0,0,0.068234037,0,0,0,0,0,0,0,0,0,0,0,0,0,0.481713862,0,0,0,0,0.275078102,0,0,0,0
PD41494a,China,0.108510741,0.078807178,0,0,0.214231259,0,0,0,0,0,0,0,0,0,0.061233345,0,0.053924582,0,0,0,0.080804383,0,0,0,0,0,0,0,0,0,0,0,0,0,0.402488512,0,0,0,0,0,0,0,0,0
PD41495a,China,0.076223448,0.093166051,0,0,0.451689548,0,0,0,0,0.135634414,0,0,0,0,0.08373265,0,0,0,0,0,0.159553888,0,0,0,0,0,0,0,0,0,0,0,0,0,0,0,0,0,0,0,0,0,0,0
PD41496a,China,0.050113851,0.162644271,0,0,0.421991923,0,0,0,0,0,0,0,0,0,0.193749219,0,0,0,0,0.06290695,0.108593786,0,0,0,0,0,0,0,0,0,0,0,0,0,0,0,0,0,0,0,0,0,0,0
PD41497a,China,0.045009407,0.230486389,0.200503677,0,0,0,0,0,0,0,0,0,0,0,0.524000527,0,0,0,0,0,0,0,0,0,0,0,0,0,0,0,0,0,0,0,0,0,0,0,0,0,0,0,0,0
PD41498a,China,0.074194976,0.232985639,0,0,0.302940293,0,0,0,0,0,0,0,0,0,0.281587227,0,0,0,0,0,0.108291864,0,0,0,0,0,0,0,0,0,0,0,0,0,0,0,0,0,0,0,0,0,0,0
PD41499a,China,0.056961409,0.047663536,0,0,0.220905475,0,0,0,0,0,0,0,0,0,0,0,0.064017156,0,0,0,0.228891255,0,0,0,0,0,0,0,0,0.031657062,0,0,0,0,0.349904106,0,0,0,0,0,0,0,0,0
PD41500a,China,0.100375368,0.130374537,0,0,0.372667887,0,0,0,0,0,0,0,0,0,0.189091619,0,0,0,0,0,0.20749059,0,0,0,0,0,0,0,0,0,0,0,0,0,0,0,0,0,0,0,0,0,0,0
PD41502a,China,0.066599383,0.054635438,0,0,0,0,0,0,0,0.169606854,0,0,0,0,0.115096997,0,0,0,0,0,0.191580798,0,0,0.080010513,0,0,0,0,0,0.036778241,0,0,0.188903698,0,0,0.096788078,0,0,0,0,0,0,0,0
PD41503a,China,0.126346333,0.05541871,0,0,0,0,0,0,0,0,0,0,0,0,0.150825702,0,0,0,0,0,0.082224932,0,0,0,0,0,0,0,0,0.046303268,0,0,0,0,0.538881055,0,0,0,0,0,0,0,0,0
PD41504a,China,0.156069153,0.164549395,0,0,0,0,0,0,0,0,0,0,0,0,0.207512932,0,0,0,0,0,0.107788489,0,0,0,0,0,0,0,0.364080031,0,0,0,0,0,0,0,0,0,0,0,0,0,0,0
PD41505a,China,0.073487474,0.054260589,0,0,0.429011978,0,0,0,0,0,0,0,0,0,0.095882252,0,0,0,0,0,0.19280278,0,0,0,0,0,0,0,0,0,0,0,0,0.154554926,0,0,0,0,0,0,0,0,0,0
PD41506a,China,0.038832674,0.119977409,0.631845941,0,0,0,0,0,0,0,0,0,0,0,0.209343976,0,0,0,0,0,0,0,0,0,0,0,0,0,0,0,0,0,0,0,0,0,0,0,0,0,0,0,0,0
PD41507a,China,0.038851656,0,0,0,0.431484321,0,0,0,0,0.164269984,0,0,0,0,0.035238523,0,0.042070872,0,0,0,0,0,0,0,0,0,0,0,0,0,0,0,0,0,0,0,0,0,0.082422654,0,0.093741022,0.111920968,0,0
PD41508a,China,0,0.169323761,0.370325635,0,0,0,0,0,0,0,0,0,0,0,0.460350604,0,0,0,0,0,0,0,0,0,0,0,0,0,0,0,0,0,0,0,0,0,0,0,0,0,0,0,0,0
PD41509a,China,0.046279264,0.071387272,0,0,0.390390962,0,0,0,0,0.153771963,0,0,0,0,0.123802318,0,0,0,0,0,0.158185098,0,0,0,0,0,0,0,0,0,0,0,0,0,0,0,0,0.056183123,0,0,0,0,0,0
PD41510a,China,0.062828497,0.217988541,0,0,0.255348922,0,0,0,0,0,0,0,0,0,0.37330338,0,0,0,0,0,0.09053066,0,0,0,0,0,0,0,0,0,0,0,0,0,0,0,0,0,0,0,0,0,0,0
PD41511a,China,0.065279245,0.046946593,0,0,0.300927332,0,0,0,0,0.102202189,0,0,0,0,0.151843996,0,0,0,0,0,0,0,0,0,0,0,0,0,0,0,0,0,0.190605933,0.142194712,0,0,0,0,0,0,0,0,0,0
PD41512a,China,0.067039926,0.09472438,0,0,0.383290918,0,0,0,0,0,0,0,0,0,0.106181084,0,0,0,0,0,0.298713587,0,0,0.050050105,0,0,0,0,0,0,0,0,0,0,0,0,0,0,0,0,0,0,0,0
PD41700a,Japan,0.088174878,0.150428423,0,0,0.453903297,0,0,0,0,0,0,0,0,0,0.178013429,0,0,0,0,0,0.129479972,0,0,0,0,0,0,0,0,0,0,0,0,0,0,0,0,0,0,0,0,0,0,0
PD41701a,Japan,0.06010548,0.492761109,0,0,0,0,0,0,0,0,0,0,0,0,0.447133411,0,0,0,0,0,0,0,0,0,0,0,0,0,0,0,0,0,0,0,0,0,0,0,0,0,0,0,0,0
PD41702a,Japan,0.060485953,0.189061537,0,0,0.325517896,0,0,0,0,0,0,0,0,0,0.258835507,0,0,0,0,0,0.166099107,0,0,0,0,0,0,0,0,0,0,0,0,0,0,0,0,0,0,0,0,0,0,0
PD41703a,Japan,0.111715685,0.042241971,0,0,0.560225381,0,0,0,0,0,0,0,0,0,0.061359506,0,0,0,0,0,0.224457458,0,0,0,0,0,0,0,0,0,0,0,0,0,0,0,0,0,0,0,0,0,0,0
PD41704a,Japan,0.037274483,0.251940986,0,0,0.283384019,0,0,0,0,0.117592478,0,0,0,0,0.199148271,0,0,0.078514454,0,0.032145309,0,0,0,0,0,0,0,0,0,0,0,0,0,0,0,0,0,0,0,0,0,0,0,0
PD41705a,Japan,0.052283347,0.031660726,0,0,0,0,0,0,0,0,0,0.017930558,0,0,0.07463391,0,0,0.120747945,0,0,0,0,0,0,0,0,0,0,0,0,0,0,0,0,0.54241983,0,0,0,0.160323684,0,0,0,0,0
PD41706a,Japan,0.058133951,0,0,0,0,0,0,0,0,0.124918325,0,0,0,0,0,0,0,0,0,0,0.132080579,0,0,0,0,0,0.063787186,0,0.063600669,0,0,0,0,0.11417463,0.382755183,0.060549477,0,0,0,0,0,0,0,0
PD41707a,Japan,0.04002105,0.037881495,0,0,0.381285324,0,0,0,0,0.204273755,0,0,0,0,0.036416887,0,0,0.082017424,0,0,0,0,0,0,0,0,0,0,0,0,0,0.082491241,0,0,0,0,0,0,0.135612822,0,0,0,0,0
PD41709a,Japan,0.087237661,0.038605611,0,0,0.542201486,0,0,0,0,0.132597647,0,0,0,0,0.051070618,0,0,0,0,0,0.148286977,0,0,0,0,0,0,0,0,0,0,0,0,0,0,0,0,0,0,0,0,0,0,0
PD41710a,Japan,0,0.274820406,0,0,0,0,0,0,0,0,0,0,0,0,0.356297844,0,0,0.156131967,0,0,0,0,0,0,0,0,0,0,0,0,0,0,0,0.212749783,0,0,0,0,0,0,0,0,0,0
PD41711a,Japan,0.050016198,0.039919355,0.204901225,0,0.238836395,0,0,0,0,0,0,0,0,0,0.061503624,0,0,0.115781783,0,0,0.113853392,0,0,0,0,0,0,0,0.041997985,0,0,0,0,0,0,0,0,0,0.133190043,0,0,0,0,0
PD41712a,Japan,0.038239953,0.12687537,0.56066165,0,0,0,0,0,0,0,0,0,0,0,0.274223027,0,0,0,0,0,0,0,0,0,0,0,0,0,0,0,0,0,0,0,0,0,0,0,0,0,0,0,0,0
PD41713a,Japan,0.039635657,0.089215167,0,0,0.317423739,0,0,0,0,0.098923443,0,0,0,0,0.235511462,0,0,0.097975971,0,0,0,0,0,0,0,0,0,0,0,0,0,0,0,0,0,0,0,0,0.121314561,0,0,0,0,0
PD41714a,Japan,0,0.088425907,0,0,0.525004874,0,0,0,0,0.164118429,0,0,0,0,0.22245079,0,0,0,0,0,0,0,0,0,0,0,0,0,0,0,0,0,0,0,0,0,0,0,0,0,0,0,0,0
PD41715a,Japan,0.077507981,0.067036202,0,0,0.343417003,0,0.037975051,0,0,0.12687452,0,0,0,0,0.04892457,0,0,0,0,0,0.298264672,0,0,0,0,0,0,0,0,0,0,0,0,0,0,0,0,0,0,0,0,0,0,0
PD41717a,Japan,0.054694141,0.060219644,0,0,0,0,0,0,0,0,0,0,0,0,0.077380153,0,0,0,0,0,0.108437036,0,0,0,0,0,0,0,0,0,0,0,0,0,0.586049774,0,0,0,0,0,0,0.113219251,0,0
PD41718a,Japan,0.054104587,0.170034011,0.235465034,0,0.281327681,0,0,0,0,0,0,0,0,0,0.259068686,0,0,0,0,0,0,0,0,0,0,0,0,0,0,0,0,0,0,0,0,0,0,0,0,0,0,0,0,0
PD41719a,Japan,0.066080905,0.125608386,0,0,0.472501521,0,0,0,0,0,0,0,0,0,0.090403355,0,0,0,0,0,0.118357131,0,0,0,0,0,0,0,0,0,0,0,0,0,0,0,0,0,0.127048702,0,0,0,0,0
PD41720a,Japan,0.048276303,0,0,0,0.349120823,0,0,0,0,0,0,0,0,0,0,0,0,0.179267475,0,0,0.198817649,0,0,0,0,0,0,0,0,0,0,0,0,0,0,0,0,0,0.224517751,0,0,0,0,0
PD41722a,Japan,0.025229551,0.019667243,0,0,0.370456133,0,0,0,0,0.096462206,0,0,0,0,0.047326685,0,0,0.158668424,0.034247456,0.047330077,0.063908511,0,0,0,0,0,0,0,0,0,0,0,0,0,0,0,0,0,0.136703714,0,0,0,0,0
PD41725a,Japan,0.057942453,0.115658491,0,0,0,0,0,0,0,0,0,0,0,0,0.143246277,0,0,0.095497146,0,0,0,0,0,0,0,0,0,0,0,0,0,0,0,0,0.587655633,0,0,0,0,0,0,0,0,0
PD41728a,Japan,0.168729209,0.10295423,0,0,0.487908533,0,0,0,0,0,0,0,0,0,0.091950883,0,0,0,0,0,0.148457145,0,0,0,0,0,0,0,0,0,0,0,0,0,0,0,0,0,0,0,0,0,0,0
PD41729a,Japan,0.054323613,0.091424848,0,0,0.438105091,0,0,0,0,0.144427651,0,0,0,0,0.094716667,0,0,0,0,0,0,0,0,0,0,0,0,0,0,0,0,0.042020518,0,0,0,0,0,0,0.134981611,0,0,0,0,0
PD41730a,Japan,0.059073647,0.102060579,0,0,0,0,0,0,0,0.188434548,0,0,0,0,0.132536449,0,0,0.092216491,0,0.032284614,0,0,0,0,0,0,0.062710009,0,0,0,0,0,0.109025655,0,0,0.074348008,0,0,0.14731,0,0,0,0,0
PD41731a,Japan,0,0.100959978,0,0.188110217,0,0,0,0,0,0,0,0,0,0,0.174975324,0,0,0.161752995,0,0,0.119430328,0,0,0,0,0,0,0,0,0,0,0,0,0,0,0,0,0,0.254771158,0,0,0,0,0
PD41734a,Japan,0.045827092,0.221307997,0,0,0,0,0,0,0,0.202378269,0,0,0,0,0.393135496,0,0,0.137351146,0,0,0,0,0,0,0,0,0,0,0,0,0,0,0,0,0,0,0,0,0,0,0,0,0,0
PD41737a,Japan,0.102289977,0.020253063,0,0,0.354754437,0,0,0,0,0,0,0,0,0,0.03532373,0,0,0,0,0,0.153052036,0,0,0,0,0,0,0,0,0.030661565,0,0,0,0,0.303665192,0,0,0,0,0,0,0,0,0
PD41739a,Japan,0,0.031984456,0,0,0,0,0,0,0,0.192421044,0,0,0,0,0.096347835,0,0,0.247888521,0,0,0,0,0,0,0,0,0.058781192,0,0,0,0,0,0,0,0,0,0,0,0.372576952,0,0,0,0,0
PD41740a,Japan,0.056804771,0.088085305,0,0,0,0,0,0,0,0.176029204,0,0,0,0,0.090338934,0,0,0.11635382,0,0,0.178413372,0,0,0,0,0,0.118682356,0,0.044791224,0,0,0,0.130501015,0,0,0,0,0,0,0,0,0,0,0
PD41741a,Japan,0,0.098945647,0,0,0.461174866,0,0,0,0,0,0,0,0,0,0.267415418,0,0,0,0,0,0,0,0,0,0,0,0,0,0,0,0,0,0,0,0,0,0,0,0.172464069,0,0,0,0,0
PD41742a,Japan,0.038761141,0.054209725,0,0,0,0,0,0,0,0,0,0,0,0,0.104218213,0,0,0.16877995,0,0,0.15701298,0,0,0.06240781,0,0,0,0,0,0,0,0,0,0,0.414610182,0,0,0,0,0,0,0,0,0
PD41743a,Japan,0.043859897,0.236928974,0,0,0,0,0,0,0,0.187995781,0,0,0,0,0.350495268,0,0,0.109047058,0,0,0,0,0,0,0,0,0.071673022,0,0,0,0,0,0,0,0,0,0,0,0,0,0,0,0,0
PD41744a,Japan,0.07453977,0.065800026,0,0,0.235027765,0,0,0,0,0.117904705,0,0,0,0,0.106832617,0,0,0,0,0,0,0,0,0,0,0,0,0,0,0,0,0,0,0,0.399895118,0,0,0,0,0,0,0,0,0
PD41746a,Japan,0.078947633,0.072885806,0,0,0,0,0,0,0,0,0,0,0,0,0.09331058,0,0,0.145580383,0,0,0,0,0,0,0,0,0,0,0,0,0,0,0,0,0.609275599,0,0,0,0,0,0,0,0,0
PD41747a,Japan,0,0.248090744,0,0,0,0,0,0,0,0.17271028,0,0,0,0,0.388328934,0,0,0,0,0,0,0,0,0,0,0,0,0,0,0,0,0,0.190870042,0,0,0,0,0,0,0,0,0,0,0
PD41748a,Japan,0,0.203027864,0,0,0.426081996,0,0,0,0,0,0,0,0,0,0.37089014,0,0,0,0,0,0,0,0,0,0,0,0,0,0,0,0,0,0,0,0,0,0,0,0,0,0,0,0,0
PD41749a,Japan,0.043233597,0.066740291,0,0,0,0,0.0508954,0,0,0.17432405,0,0,0,0,0.079274184,0,0,0.068390346,0,0,0.119323794,0,0,0,0,0,0,0,0.05035681,0,0,0,0.085769877,0.170643464,0,0.091048188,0,0,0,0,0,0,0,0
PD42838a,Iran,0.08248866,0,0,0,0.176167255,0,0,0,0,0,0,0.018993996,0,0,0.030568073,0,0.048279277,0,0,0,0,0,0,0,0,0,0,0,0,0.026047231,0,0,0,0,0.61745551,0,0,0,0,0,0,0,0,0
PD42839a,Iran,0.090683701,0.350071607,0,0,0.319772305,0,0,0,0,0,0,0,0,0,0.239472387,0,0,0,0,0,0,0,0,0,0,0,0,0,0,0,0,0,0,0,0,0,0,0,0,0,0,0,0,0
PD42840a,Iran,0.124558292,0.162123618,0.332706774,0,0,0,0,0,0,0,0,0,0,0,0.138282653,0,0,0,0,0,0.171752753,0,0,0,0,0,0.07057591,0,0,0,0,0,0,0,0,0,0,0,0,0,0,0,0,0
PD42841a,Iran,0.068008758,0.137719549,0,0,0,0,0.052318041,0,0,0.167077063,0,0,0,0,0.133482616,0,0,0,0.073036952,0.147429071,0,0,0,0,0,0,0,0,0,0,0,0,0.14493912,0,0,0.07598883,0,0,0,0,0,0,0,0
PD42842a,Iran,0.081110028,0.110324888,0,0,0.305271042,0,0,0,0,0,0,0,0,0,0.150451114,0,0,0,0,0,0.200879427,0,0,0,0,0,0.066340469,0.085623032,0,0,0,0,0,0,0,0,0,0,0,0,0,0,0,0
PD42843a,Iran,0.078178218,0.125319945,0,0,0,0,0,0,0,0.186163858,0,0,0,0,0.236706529,0,0,0,0,0,0,0,0,0,0,0,0.078493539,0,0,0,0,0,0.155868137,0.139269774,0,0,0,0,0,0,0,0,0,0
PD42844a,Iran,0.043905089,0.087202118,0,0,0.388536155,0,0,0,0,0.163436301,0,0,0,0,0.150982,0,0,0,0.029031057,0.096706683,0,0,0,0,0,0.040200598,0,0,0,0,0,0,0,0,0,0,0,0,0,0,0,0,0,0
PD42845a,Iran,0.145346936,0.038882141,0.20388117,0,0.301568599,0,0,0,0,0,0,0,0,0,0.066259036,0,0.06024172,0,0,0,0.183820398,0,0,0,0,0,0,0,0,0,0,0,0,0,0,0,0,0,0,0,0,0,0,0
PD42846a,Iran,0.139966454,0,0,0,0,0,0,0,0,0,0,0,0,0,0,0,0,0,0,0,0.152364688,0,0,0,0,0,0,0,0,0,0,0,0,0,0.707668858,0,0,0,0,0,0,0,0,0
PD42847a,Iran,0.108023008,0.062367723,0.279952269,0,0.302497154,0,0,0,0,0,0,0,0,0,0.102309211,0,0,0,0,0,0.144850636,0,0,0,0,0,0,0,0,0,0,0,0,0,0,0,0,0,0,0,0,0,0,0
PD42848a,Iran,0.084197578,0.048144596,0,0,0,0,0,0,0,0,0,0,0,0,0,0,0,0,0,0,0.077727832,0,0,0,0,0,0,0,0.130969613,0,0.141889066,0,0,0,0.517071316,0,0,0,0,0,0,0,0,0
PD42849a,Iran,0.099264405,0.038633783,0,0,0,0,0,0,0,0,0,0,0,0,0.090128406,0,0,0,0,0,0,0,0,0,0,0,0,0,0,0,0,0,0,0,0.771973406,0,0,0,0,0,0,0,0,0
PD42850a,Iran,0.125973539,0.137972378,0,0,0.353195647,0,0,0,0,0,0,0,0,0,0.187550356,0,0,0,0,0,0.19530808,0,0,0,0,0,0,0,0,0,0,0,0,0,0,0,0,0,0,0,0,0,0,0
PD42852a,Iran,0.068829973,0.349422989,0,0,0.367264217,0,0,0,0,0,0,0,0,0,0.126729537,0,0,0,0,0,0.087753285,0,0,0,0,0,0,0,0,0,0,0,0,0,0,0,0,0,0,0,0,0,0,0
PD42853a,Iran,0.068490448,0.270126165,0,0,0.226810131,0,0,0,0,0,0,0,0,0,0.320911639,0,0,0,0,0,0.113661617,0,0,0,0,0,0,0,0,0,0,0,0,0,0,0,0,0,0,0,0,0,0,0
PD42854a,Iran,0,0.247317418,0,0,0,0,0,0,0,0,0,0,0,0,0.752682582,0,0,0,0,0,0,0,0,0,0,0,0,0,0,0,0,0,0,0,0,0,0,0,0,0,0,0,0,0
PD42855a,Tanzania,0.068221548,0.15086578,0,0,0.224890229,0,0,0,0,0.14236197,0,0,0,0,0.144612893,0,0,0,0,0,0.1034507,0,0,0,0,0,0.049931649,0,0,0,0,0,0,0,0,0,0,0,0.11566523,0,0,0,0,0
PD42856a,Tanzania,0.175006527,0,0,0,0,0,0,0,0,0,0,0,0,0.078138827,0,0,0,0,0,0,0.270913986,0,0,0,0,0,0,0,0,0.035415491,0,0,0,0,0.440525168,0,0,0,0,0,0,0,0,0
PD42858a,Tanzania,0.075802834,0.103864446,0,0,0.494325051,0,0,0,0,0,0,0,0,0,0.099766335,0,0,0,0,0,0.226241335,0,0,0,0,0,0,0,0,0,0,0,0,0,0,0,0,0,0,0,0,0,0,0
PD42859a,China,0.120331817,0,0,0,0,0,0,0,0,0,0,0,0,0,0.067921403,0,0,0,0,0,0.078986152,0,0,0,0,0,0,0,0,0.037495727,0,0,0,0,0.695264901,0,0,0,0,0,0,0,0,0
PD42861a,Malawi,0.133314606,0.229798173,0,0,0.343654489,0,0,0,0,0,0,0,0,0,0.107596743,0,0,0,0,0,0.185635988,0,0,0,0,0,0,0,0,0,0,0,0,0,0,0,0,0,0,0,0,0,0,0
PD42862a,Malawi,0.046264887,0.151976237,0,0,0.335317699,0,0,0,0,0.177385909,0,0,0,0,0.289055268,0,0,0,0,0,0,0,0,0,0,0,0,0,0,0,0,0,0,0,0,0,0,0,0,0,0,0,0,0
PD42863a,Malawi,0.052639995,0.040775581,0,0,0.353015234,0,0,0,0,0.161009501,0,0,0,0,0.06527031,0,0.086907628,0,0,0,0.142140439,0,0,0,0,0,0,0,0,0,0,0,0.098241312,0,0,0,0,0,0,0,0,0,0,0
PD42864a,Malawi,0.032184826,0.141818264,0.537702635,0,0,0,0,0,0,0,0,0,0,0,0.288294275,0,0,0,0,0,0,0,0,0,0,0,0,0,0,0,0,0,0,0,0,0,0,0,0,0,0,0,0,0
PD42865a,Malawi,0.10989778,0.073541939,0.204735097,0,0.234285265,0,0,0,0,0,0,0,0,0,0.205986194,0,0,0,0,0,0.064879532,0,0,0,0,0,0,0,0,0,0,0,0,0,0,0,0,0,0.106674193,0,0,0,0,0
PD42866a,Malawi,0.061244991,0.126820193,0,0,0.358890394,0,0,0,0,0.132288852,0,0,0,0,0.182204473,0,0,0,0,0,0,0,0,0,0,0,0,0,0,0,0,0,0,0.138551097,0,0,0,0,0,0,0,0,0,0
PD42867a,Malawi,0.176487006,0.054106535,0,0,0.454454251,0,0,0,0,0,0,0,0,0,0.049195149,0,0,0,0,0,0.223618385,0,0,0,0,0,0,0,0,0.042138672,0,0,0,0,0,0,0,0,0,0,0,0,0,0
PD42868a,Malawi,0.084956577,0.047014159,0,0,0,0,0,0,0,0.161744415,0.165871502,0,0,0,0.067088454,0,0,0,0,0.042365063,0.366274215,0,0,0,0,0,0,0,0,0,0,0,0,0,0,0.064685614,0,0,0,0,0,0,0,0
PD42869a,Malawi,0.094022635,0.058365103,0.297287208,0,0.194554422,0,0,0,0,0,0,0,0,0,0.069124103,0,0,0,0,0,0.163149236,0,0,0,0,0,0,0,0,0.024171617,0,0,0,0,0,0,0,0,0,0.099325677,0,0,0,0
PD42870a,Malawi,0.093074092,0.288388184,0,0,0.291268815,0,0,0,0,0,0,0,0,0,0.107978603,0,0,0,0,0,0.219290305,0,0,0,0,0,0,0,0,0,0,0,0,0,0,0,0,0,0,0,0,0,0,0
PD42871a,Malawi,0.043501188,0.178040811,0,0,0,0,0,0,0,0.136645275,0,0,0,0.124552575,0.301060062,0,0,0,0,0,0.150379093,0,0,0,0,0,0.065820997,0,0,0,0,0,0,0,0,0,0,0,0,0,0,0,0,0
PD42872a,Malawi,0.091385688,0.066722447,0,0,0.447606315,0,0,0,0,0.133339885,0,0,0,0,0.130074401,0,0,0,0,0,0.130871264,0,0,0,0,0,0,0,0,0,0,0,0,0,0,0,0,0,0,0,0,0,0,0
PD42873a,Malawi,0.075411718,0.034354533,0,0,0,0,0.038876162,0,0,0,0,0,0,0.070952624,0.045844876,0,0,0.044364496,0,0,0.201820319,0,0,0.046834659,0,0,0,0,0,0,0,0,0,0,0.353258731,0.088281882,0,0,0,0,0,0,0,0
PD43304a,Iran,0.110310491,0.063744172,0,0,0,0,0.059367445,0,0,0.184564004,0,0,0,0,0.082067929,0,0,0,0,0,0.172711353,0,0,0,0,0,0,0,0,0,0,0,0.126332165,0.119143381,0,0.081759059,0,0,0,0,0,0,0,0
PD43305a,Iran,0.080252149,0.168852288,0.295276837,0,0,0,0,0,0,0,0,0,0,0,0.3512153,0,0,0,0,0,0.104403427,0,0,0,0,0,0,0,0,0,0,0,0,0,0,0,0,0,0,0,0,0,0,0
PD43306a,Iran,0.126822024,0,0,0,0,0,0,0,0,0,0,0,0,0,0,0,0,0,0,0,0.109566061,0,0,0,0,0,0,0,0.093210759,0,0,0,0,0,0.670401156,0,0,0,0,0,0,0,0,0
PD43307a,China,0.092298324,0.114511229,0,0,0.31519846,0,0.041023434,0,0,0,0,0,0,0,0.103782824,0,0.061616091,0,0,0,0.154998151,0,0,0,0,0,0,0,0,0,0,0,0,0,0,0,0,0,0,0.116571487,0,0,0,0
PD43308a,China,0.050738931,0.275316905,0,0,0.285221464,0,0,0,0,0,0,0,0,0,0.306682764,0,0,0,0,0,0.082039935,0,0,0,0,0,0,0,0,0,0,0,0,0,0,0,0,0,0,0,0,0,0,0
PD43309a,China,0.080846796,0.035070661,0,0,0.359635196,0,0,0,0,0.189032628,0,0,0,0,0.074180787,0,0,0,0.032169306,0.082252396,0,0,0,0,0,0,0,0,0,0,0,0,0,0,0,0,0,0,0.14681223,0,0,0,0,0
PD43310a,China,0.16991166,0,0,0,0.322208973,0,0,0,0,0,0,0,0,0,0,0,0.100846188,0,0,0,0.099636552,0.132250119,0,0,0,0,0,0,0,0,0,0,0,0,0,0.175146508,0,0,0,0,0,0,0,0
PD43311a,China,0.055074919,0.228320342,0,0,0.29948574,0,0,0,0,0.113581935,0,0,0,0,0.303537064,0,0,0,0,0,0,0,0,0,0,0,0,0,0,0,0,0,0,0,0,0,0,0,0,0,0,0,0,0
PD43312a,China,0.050711406,0.121829616,0,0,0,0,0,0,0,0.180226982,0,0,0,0.096915388,0.274499956,0,0,0,0,0.042416239,0,0,0,0,0,0,0.064234096,0,0,0,0,0,0,0.169166317,0,0,0,0,0,0,0,0,0,0
PD43313a,China,0.115607602,0.114930283,0,0,0.406948355,0,0,0,0,0,0,0,0,0,0.232287168,0,0,0,0,0,0.130226592,0,0,0,0,0,0,0,0,0,0,0,0,0,0,0,0,0,0,0,0,0,0,0
PD43314a,China,0.125144842,0.062906357,0,0,0.446197956,0,0,0,0,0,0,0,0,0,0.126337623,0,0,0,0,0,0.173026203,0,0,0,0,0,0,0,0,0,0,0,0,0,0,0,0,0.066387019,0,0,0,0,0,0
PD43315a,China,0.068505993,0,0,0,0.306575288,0,0,0,0,0.17301808,0,0,0,0,0,0,0,0,0,0,0,0,0,0,0,0,0,0,0,0,0,0,0,0,0.451900639,0,0,0,0,0,0,0,0,0
PD43316a,China,0.082648892,0.046070936,0,0,0.382161099,0,0,0,0,0,0,0,0,0,0,0,0,0,0,0,0.338148688,0,0,0,0,0,0,0,0,0,0,0,0,0,0,0,0,0,0.150970384,0,0,0,0,0
PD43317a,China,0.145719734,0.077626428,0,0,0.467473683,0,0,0,0,0,0,0,0,0,0.097864909,0,0,0,0,0,0.177221281,0,0,0,0,0,0,0,0,0.034093964,0,0,0,0,0,0,0,0,0,0,0,0,0,0
PD43318a,China,0.068336696,0.032783893,0,0,0,0,0,0,0,0,0,0,0,0,0.077497735,0,0,0,0,0,0.209473048,0,0,0,0,0,0,0,0,0,0,0,0,0,0.544834356,0.067074272,0,0,0,0,0,0,0,0
PD43319a,China,0.103493691,0.084816986,0,0,0.468680016,0,0,0,0,0.17979893,0,0,0,0,0.163210376,0,0,0,0,0,0,0,0,0,0,0,0,0,0,0,0,0,0,0,0,0,0,0,0,0,0,0,0,0
PD43320a,China,0.117508461,0.146794514,0,0,0.417042919,0,0,0,0,0,0,0,0,0,0.232437845,0,0,0,0,0,0.086216261,0,0,0,0,0,0,0,0,0,0,0,0,0,0,0,0,0,0,0,0,0,0,0
PD43321a,China,0.068154456,0.161121555,0,0,0.315728956,0,0,0,0,0,0,0,0,0,0.287194114,0,0,0,0,0,0.16780092,0,0,0,0,0,0,0,0,0,0,0,0,0,0,0,0,0,0,0,0,0,0,0
PD43322a,China,0.10955075,0.086968241,0,0,0.494733521,0,0,0,0,0,0,0,0,0,0.089645441,0,0,0,0,0,0.185778156,0,0,0,0,0,0,0,0,0.033323891,0,0,0,0,0,0,0,0,0,0,0,0,0,0
PD43323a,China,0.069470868,0.127275581,0,0,0,0,0,0,0,0.120816728,0,0,0,0.099758171,0.149568062,0,0,0,0,0,0.149137761,0,0,0,0,0,0.066481444,0,0,0,0,0,0,0.142387292,0,0.075104094,0,0,0,0,0,0,0,0
PD43324a,China,0.086934349,0.095956873,0,0,0.309383902,0,0.045677283,0,0,0.122785311,0,0,0,0,0.078518551,0,0,0,0,0,0.192214393,0,0,0,0,0,0,0,0,0,0,0,0,0,0,0.068529337,0,0,0,0,0,0,0,0
PD43326a,China,0.096518882,0.116458901,0,0,0.360167914,0,0,0,0,0,0,0,0,0,0.2382705,0,0,0,0,0,0.188583804,0,0,0,0,0,0,0,0,0,0,0,0,0,0,0,0,0,0,0,0,0,0,0
PD43327a,China,0.116599358,0.066454237,0.228174318,0,0.294493663,0,0,0,0,0,0,0,0,0,0.102812794,0,0,0,0,0,0.19146563,0,0,0,0,0,0,0,0,0,0,0,0,0,0,0,0,0,0,0,0,0,0,0
PD43328a,China,0.106330325,0.050945375,0,0,0,0,0,0,0,0.190859324,0,0,0,0,0.19238377,0,0.06272921,0,0,0,0,0,0,0,0,0,0.09971344,0,0.098899043,0,0,0,0.198139512,0,0,0,0,0,0,0,0,0,0,0
PD43329a,China,0.104928445,0.059725432,0.277064292,0,0.360805784,0,0,0,0,0,0,0,0,0,0.111718649,0,0,0,0,0,0.085757399,0,0,0,0,0,0,0,0,0,0,0,0,0,0,0,0,0,0,0,0,0,0,0
PD43330a,China,0.059012113,0.108273747,0,0,0,0,0,0,0,0.152645197,0,0,0,0.13646472,0.223318625,0,0,0,0,0,0.08332475,0,0,0,0,0,0.078942496,0,0,0,0,0,0,0.158018353,0,0,0,0,0,0,0,0,0,0
PD43331a,China,0,0.320570238,0,0,0,0,0,0,0,0,0,0,0,0,0.679429762,0,0,0,0,0,0,0,0,0,0,0,0,0,0,0,0,0,0,0,0,0,0,0,0,0,0,0,0,0
PD43333a,China,0,0.258438168,0,0,0,0,0,0,0,0,0,0,0,0,0.536001721,0,0,0,0,0,0,0,0,0,0,0,0,0,0,0,0,0,0,0,0,0,0,0,0,0,0.205560111,0,0,0
PD43334a,China,0.0935798,0.054510359,0,0,0.508420434,0,0,0,0,0.117331132,0,0,0,0,0.111918147,0,0,0,0,0,0.085299771,0,0,0,0,0,0,0,0,0.028940357,0,0,0,0,0,0,0,0,0,0,0,0,0,0
PD43335a,China,0.085841703,0.188621106,0,0,0.323751801,0,0,0,0,0,0,0,0,0,0.262245323,0,0,0,0,0,0.139540067,0,0,0,0,0,0,0,0,0,0,0,0,0,0,0,0,0,0,0,0,0,0,0
PD43336a,China,0.087291566,0.087415267,0.395317874,0,0,0,0,0,0,0,0,0,0,0,0.168049931,0,0,0,0,0.033094491,0.093213837,0,0,0,0,0,0,0,0,0,0,0,0.135617035,0,0,0,0,0,0,0,0,0,0,0
PD43337a,China,0,0.158630046,0,0,0,0,0,0,0,0.154928082,0,0,0,0,0.409692764,0,0,0,0,0,0,0,0,0,0,0,0,0,0,0,0,0,0,0.276749108,0,0,0,0,0,0,0,0,0,0
PD43338a,China,0.097821273,0.193405787,0,0,0.315136527,0,0,0,0,0.150479063,0,0,0,0,0.24315735,0,0,0,0,0,0,0,0,0,0,0,0,0,0,0,0,0,0,0,0,0,0,0,0,0,0,0,0,0
PD43339a,China,0.064486321,0.217928275,0,0,0.290316584,0,0,0,0,0.158382765,0,0,0,0,0.268886056,0,0,0,0,0,0,0,0,0,0,0,0,0,0,0,0,0,0,0,0,0,0,0,0,0,0,0,0,0
PD43340a,China,0.030787495,0.073059759,0,0.127929509,0.468933962,0,0,0,0,0.172116972,0,0,0,0,0.065559895,0,0,0,0,0,0,0,0,0,0,0,0,0,0.061612409,0,0,0,0,0,0,0,0,0,0,0,0,0,0,0
PD43341a,China,0.076081748,0.083800807,0.358544403,0,0.248302071,0,0,0,0,0,0,0,0,0,0.150977514,0,0,0,0,0,0.082293456,0,0,0,0,0,0,0,0,0,0,0,0,0,0,0,0,0,0,0,0,0,0,0
PD43342a,China,0.098447711,0.062473661,0,0,0.282950979,0,0,0,0,0,0,0,0,0,0.076164533,0,0,0,0,0,0.118869642,0,0,0,0,0,0,0,0,0,0,0,0,0,0.361093474,0,0,0,0,0,0,0,0,0
PD43343a,China,0.078067471,0.126976258,0,0,0.49763435,0,0,0,0,0,0,0,0,0,0.102639525,0,0,0,0,0,0.194682396,0,0,0,0,0,0,0,0,0,0,0,0,0,0,0,0,0,0,0,0,0,0,0
PD43344a,China,0.111622072,0.170400738,0.45149585,0,0,0,0,0,0,0,0,0,0,0,0.188440712,0,0,0,0,0,0.078040627,0,0,0,0,0,0,0,0,0,0,0,0,0,0,0,0,0,0,0,0,0,0,0
PD43345a,China,0.067508359,0.044952666,0.343883741,0,0.289680394,0,0,0,0,0,0,0,0,0,0.119046978,0,0,0,0,0,0.134927862,0,0,0,0,0,0,0,0,0,0,0,0,0,0,0,0,0,0,0,0,0,0,0
PD43346a,China,0.106626264,0.054145269,0,0,0.241475045,0,0,0,0,0.137176778,0,0,0,0,0.085760464,0,0,0,0,0,0,0,0,0,0,0,0,0,0,0,0,0,0,0,0.37481618,0,0,0,0,0,0,0,0,0
PD43347a,China,0.123390639,0,0,0,0,0,0,0,0,0,0,0,0,0.094088536,0.032984782,0,0,0,0,0,0.096268342,0,0,0,0,0,0,0,0,0,0,0,0,0,0.6532677,0,0,0,0,0,0,0,0,0
PD43348a,China,0.112687232,0.29341252,0,0,0,0,0,0,0,0,0,0,0,0,0.445882779,0,0,0,0,0,0.148017469,0,0,0,0,0,0,0,0,0,0,0,0,0,0,0,0,0,0,0,0,0,0,0
PD43349a,China,0.055101507,0.094784162,0.305674094,0,0.286441973,0,0,0,0,0,0,0,0,0,0.13079354,0,0,0,0,0,0.094350126,0,0,0,0,0,0,0,0,0.032854598,0,0,0,0,0,0,0,0,0,0,0,0,0,0
PD43350a,China,0.104687803,0.07496245,0,0,0.398509465,0,0,0,0,0,0,0,0,0,0.095465444,0,0,0,0,0,0.326374838,0,0,0,0,0,0,0,0,0,0,0,0,0,0,0,0,0,0,0,0,0,0,0
PD43351a,China,0.087521436,0.241835254,0,0,0,0,0,0,0,0,0,0,0,0,0.418467291,0,0,0,0,0,0,0,0,0,0,0,0,0.109482138,0,0,0,0,0,0,0,0.142693881,0,0,0,0,0,0,0,0
PD43352a,China,0.062534263,0.110781515,0,0,0.481899153,0,0,0,0,0,0,0,0,0,0.218590508,0,0,0,0,0,0.12619456,0,0,0,0,0,0,0,0,0,0,0,0,0,0,0,0,0,0,0,0,0,0,0
PD43353a,China,0.072585386,0.27529077,0,0,0,0,0,0,0,0,0,0,0,0.104384578,0.340010944,0,0,0,0,0,0.105456373,0,0,0.102271948,0,0,0,0,0,0,0,0,0,0,0,0,0,0,0,0,0,0,0,0
PD43354a,China,0.091682704,0.120760494,0,0,0.451509555,0,0,0,0,0,0,0,0,0,0.178138899,0,0,0,0,0.024403711,0.133504638,0,0,0,0,0,0,0,0,0,0,0,0,0,0,0,0,0,0,0,0,0,0,0
PD43355a,China,0.084138777,0.101355087,0.251207847,0,0.22230407,0,0,0,0,0,0,0,0,0,0.1966847,0,0,0,0,0,0.064530678,0,0,0,0,0,0,0,0,0,0,0,0,0,0,0,0,0.079778841,0,0,0,0,0,0
PD43356a,China,0.079556179,0.096297532,0,0,0.473219392,0,0,0,0,0.168023968,0,0,0,0,0.182902929,0,0,0,0,0,0,0,0,0,0,0,0,0,0,0,0,0,0,0,0,0,0,0,0,0,0,0,0,0
PD43357a,China,0,0.267624379,0,0,0,0,0,0,0,0,0,0,0,0,0.732375621,0,0,0,0,0,0,0,0,0,0,0,0,0,0,0,0,0,0,0,0,0,0,0,0,0,0,0,0,0
PD43358a,China,0.088161132,0.166848365,0,0,0.358503571,0,0,0,0,0,0,0,0,0,0.198062394,0,0,0,0,0,0.188424539,0,0,0,0,0,0,0,0,0,0,0,0,0,0,0,0,0,0,0,0,0,0,0
PD43359a,China,0,0.40598171,0,0,0,0,0,0,0,0,0,0,0,0,0.59401829,0,0,0,0,0,0,0,0,0,0,0,0,0,0,0,0,0,0,0,0,0,0,0,0,0,0,0,0,0
PD43360a,China,0.076345935,0.094161631,0,0,0.377320659,0,0,0,0,0,0,0,0,0,0.102046663,0,0,0,0,0,0.217554249,0,0,0,0,0,0,0,0,0,0,0,0,0,0,0,0,0,0.132570863,0,0,0,0,0
PD43361a,China,0.088734659,0.190533865,0.211473512,0,0.183095004,0,0,0,0,0,0,0,0,0,0.216939667,0,0,0,0,0,0.109223293,0,0,0,0,0,0,0,0,0,0,0,0,0,0,0,0,0,0,0,0,0,0,0
PD43362a,China,0.035968264,0.049831386,0.639934797,0,0,0,0,0,0,0,0.131761733,0,0,0,0.142503819,0,0,0,0,0,0,0,0,0,0,0,0,0,0,0,0,0,0,0,0,0,0,0,0,0,0,0,0,0
PD43363a,China,0,0.085934585,0,0,0,0,0,0,0,0.270137527,0,0,0,0.101136535,0.159965814,0,0.055371974,0,0,0,0,0,0,0,0,0,0.082807862,0,0,0,0,0,0,0.244645702,0,0,0,0,0,0,0,0,0,0
PD43364a,China,0.072452046,0.069402475,0,0,0.246433311,0,0,0,0,0,0,0,0,0,0.046155459,0,0,0,0,0.043347028,0.196167907,0,0,0,0,0,0,0,0,0,0,0,0,0,0.326041773,0,0,0,0,0,0,0,0,0
PD43365a,China,0.149711718,0.05164175,0,0,0.379459679,0,0,0,0,0.105580551,0,0,0,0,0.047856048,0,0.051070968,0,0,0,0.168480532,0,0,0,0,0,0,0,0.046198754,0,0,0,0,0,0,0,0,0,0,0,0,0,0,0
PD43366a,China,0.097510603,0.103838568,0,0,0.406770668,0,0,0,0,0,0,0,0,0,0.200473346,0,0,0,0,0.086858136,0.104548679,0,0,0,0,0,0,0,0,0,0,0,0,0,0,0,0,0,0,0,0,0,0,0
PD43367a,China,0.106410487,0.097090389,0,0,0.510932071,0,0,0,0,0,0,0,0,0,0.088331043,0,0,0,0,0,0.19723601,0,0,0,0,0,0,0,0,0,0,0,0,0,0,0,0,0,0,0,0,0,0,0
PD43368a,China,0.033388933,0.089766596,0.579385092,0,0,0,0,0,0,0,0,0,0,0.063898013,0.166671447,0,0,0,0,0,0,0,0,0.066889919,0,0,0,0,0,0,0,0,0,0,0,0,0,0,0,0,0,0,0,0
PD43369a,China,0.044850055,0.293263267,0,0,0,0,0,0,0,0.17448231,0,0,0,0,0.340005889,0,0,0,0,0.040143639,0,0,0,0,0,0,0,0,0,0,0,0,0,0,0,0,0,0.107254839,0,0,0,0,0,0
PD43370a,China,0,0.071700111,0,0,0,0,0,0,0,0,0,0.303702579,0,0,0.108059833,0,0,0,0,0,0.140251606,0,0,0,0,0.257288482,0,0,0,0,0,0,0,0,0,0.118997389,0,0,0,0,0,0,0,0
PD43371a,China,0.10999823,0,0,0,0.572742664,0,0,0,0,0,0,0,0,0,0.034892545,0,0,0,0,0,0.249441955,0,0,0,0,0,0,0,0,0.032924606,0,0,0,0,0,0,0,0,0,0,0,0,0,0
PD43372a,China,0.037142351,0.14833911,0,0,0,0,0,0,0,0.275132012,0,0,0,0.095610963,0.16161392,0,0,0,0,0.063650955,0,0,0,0,0,0,0.080157875,0,0,0,0,0,0,0.138352814,0,0,0,0,0,0,0,0,0,0
PD43373a,China,0.090113356,0.106495171,0,0,0.320152196,0,0,0,0,0.11065636,0,0,0,0,0.129615461,0,0,0,0,0,0.136251262,0,0,0,0,0,0,0,0,0,0,0,0,0,0,0,0,0,0.106716193,0,0,0,0,0
PD43374a,China,0.050783439,0.102803921,0,0,0.387214875,0,0,0,0,0.149413289,0,0,0,0,0.203842915,0,0,0,0,0,0.105941561,0,0,0,0,0,0,0,0,0,0,0,0,0,0,0,0,0,0,0,0,0,0,0
PD43777a,Iran,0,0.322250625,0,0,0,0,0,0,0,0,0,0,0,0,0.677749375,0,0,0,0,0,0,0,0,0,0,0,0,0,0,0,0,0,0,0,0,0,0,0,0,0,0,0,0,0
PD43779a,Iran,0.081537102,0.161750895,0.223580782,0,0.235794871,0,0,0,0,0,0,0,0,0,0.184725302,0,0,0,0,0,0.112611048,0,0,0,0,0,0,0,0,0,0,0,0,0,0,0,0,0,0,0,0,0,0,0
PD43780a,Iran,0.101657727,0.09342096,0,0,0,0,0,0,0,0.140978573,0.111214894,0,0,0.086043461,0.13130554,0,0,0,0,0,0.135182591,0,0,0,0,0,0.081758304,0,0,0,0,0,0,0.118437949,0,0,0,0,0,0,0,0,0,0
PD43782a,Iran,0.108339327,0,0,0,0.216219823,0,0,0,0,0,0,0,0,0,0,0,0,0,0,0,0.276815992,0,0,0,0,0,0,0,0,0.035232984,0,0,0,0,0.363391874,0,0,0,0,0,0,0,0,0
PD43783a,Iran,0.106621493,0.049316424,0,0,0.220038796,0,0,0,0,0,0,0,0,0,0.037651164,0,0,0,0,0,0.263500184,0,0,0,0,0,0,0,0,0,0,0,0,0,0.32287194,0,0,0,0,0,0,0,0,0
PD43785a,Iran,0.098087392,0.093689607,0,0,0,0,0.058409631,0,0,0.161260285,0,0,0,0,0.153895762,0,0,0,0,0,0.16785856,0,0,0,0,0,0,0,0,0,0,0,0.162294041,0,0,0.104504722,0,0,0,0,0,0,0,0
PD43786a,Iran,0.072342392,0.201052201,0,0,0,0,0,0,0,0,0,0,0,0.091081931,0.388628364,0,0,0,0,0,0,0,0,0,0,0,0,0,0,0,0,0,0,0.246895112,0,0,0,0,0,0,0,0,0,0
PD43787a,Iran,0.117969267,0.155438668,0,0,0.364607836,0,0,0,0,0,0,0,0,0,0.154583594,0,0,0,0,0,0.207400636,0,0,0,0,0,0,0,0,0,0,0,0,0,0,0,0,0,0,0,0,0,0,0
PD43789a,Iran,0.135681554,0.059789246,0,0,0,0,0,0,0,0,0,0,0,0,0.072300575,0,0,0,0,0,0.096538585,0,0,0,0,0,0,0,0,0,0,0,0,0,0.545905399,0.08978464,0,0,0,0,0,0,0,0
PD43790a,Iran,0.097429222,0.035299217,0,0,0,0,0.041593006,0,0,0,0,0,0,0,0,0,0,0,0,0,0.19928951,0,0,0,0,0,0,0,0,0,0,0,0,0,0.626389045,0,0,0,0,0,0,0,0,0
PD43791a,Iran,0,0.052795232,0,0,0.355147308,0,0,0,0,0,0,0,0,0,0.065449524,0.058052645,0.205595903,0,0,0,0,0.109217113,0,0,0,0,0,0,0,0,0,0,0,0,0,0.153742276,0,0,0,0,0,0,0,0
PD43792a,Iran,0.058599705,0.074147476,0.335270299,0,0.254748799,0,0,0,0,0,0,0,0,0,0.153638426,0,0,0,0,0,0.093709836,0,0,0,0,0,0,0,0,0.029885458,0,0,0,0,0,0,0,0,0,0,0,0,0,0
PD43793a,Iran,0.079056273,0.031047833,0.311895998,0,0,0,0,0,0,0,0,0,0,0,0.032529751,0,0,0,0,0,0.181404673,0,0.048113945,0.060891077,0,0,0,0,0,0,0,0,0.176834124,0,0,0.078226326,0,0,0,0,0,0,0,0
PD43795a,Iran,0.051735707,0.263146846,0,0,0,0,0,0,0,0,0,0,0,0,0.439576348,0,0,0,0,0,0,0,0,0,0,0,0,0,0,0,0,0,0,0.245541099,0,0,0,0,0,0,0,0,0,0
PD43796a,Iran,0.176594767,0.039029906,0,0,0.444572403,0,0,0,0,0,0,0,0,0,0.053229302,0,0.071818961,0,0,0,0.214754662,0,0,0,0,0,0,0,0,0,0,0,0,0,0,0,0,0,0,0,0,0,0,0
PD43798a,Iran,0.126609477,0.0471255,0,0,0.302891318,0,0.048485156,0,0,0,0,0,0,0,0.030036949,0,0.05989845,0,0,0,0.247158371,0,0,0,0,0,0,0,0,0.03169844,0,0,0,0,0,0,0,0,0,0.10609634,0,0,0,0
PD43800a,Iran,0.074984405,0.138961152,0.409224716,0,0,0,0,0,0,0,0,0,0,0,0.203240012,0,0,0,0,0,0.173589714,0,0,0,0,0,0,0,0,0,0,0,0,0,0,0,0,0,0,0,0,0,0,0
PD43802a,Iran,0.045914169,0.187542364,0.531710765,0,0,0,0,0,0,0,0,0,0,0,0.234832703,0,0,0,0,0,0,0,0,0,0,0,0,0,0,0,0,0,0,0,0,0,0,0,0,0,0,0,0,0
PD43803a,Iran,0.166885309,0.027089981,0,0,0.214124628,0,0,0,0,0,0,0,0,0,0,0,0,0,0,0,0.22199165,0,0,0,0,0,0.072623052,0,0,0,0,0,0,0,0.29728538,0,0,0,0,0,0,0,0,0
PD43806a,Iran,0.031720538,0.052666631,0,0,0,0,0,0,0,0.206896257,0.091721212,0,0,0.084040538,0.172491809,0,0,0,0,0,0,0,0,0,0,0,0.071522432,0,0,0,0,0,0,0.288940582,0,0,0,0,0,0,0,0,0,0
PD43807a,Iran,0.086318482,0,0,0,0,0,0,0,0,0,0,0.031729385,0,0,0.033011256,0,0,0,0,0,0,0,0,0,0,0,0,0,0,0.030639874,0,0,0,0,0.818301002,0,0,0,0,0,0,0,0,0
PD43809a,Iran,0.038890463,0.070913783,0.653081077,0,0,0,0,0,0,0,0,0,0,0,0.137982725,0,0,0,0,0,0.099131952,0,0,0,0,0,0,0,0,0,0,0,0,0,0,0,0,0,0,0,0,0,0,0
PD43810a,Iran,0.051519374,0.140727564,0,0,0.396089713,0,0,0,0,0.171495479,0,0,0,0,0.151141038,0,0,0,0,0,0.089026831,0,0,0,0,0,0,0,0,0,0,0,0,0,0,0,0,0,0,0,0,0,0,0
PD43811a,Iran,0.06761766,0,0,0,0,0,0,0,0,0,0,0,0,0,0.043219183,0,0.270484851,0,0,0,0,0.219051222,0,0,0.399627084,0,0,0,0,0,0,0,0,0,0,0,0,0,0,0,0,0,0,0
PD43812a,Iran,0.109361928,0.039736034,0,0,0,0,0,0,0,0,0,0,0,0,0.063269439,0,0,0,0,0,0.197676999,0,0,0,0,0,0,0,0.069070859,0,0,0,0,0,0.520884741,0,0,0,0,0,0,0,0,0
PD43813a,Kenya,0.098435647,0.041489837,0,0,0.42161254,0,0.040221041,0,0,0,0,0.030153024,0,0,0.024376909,0,0.059350622,0,0,0,0.172012961,0.063434962,0,0,0,0,0,0,0,0.048912456,0,0,0,0,0,0,0,0,0,0,0,0,0,0
PD43815a,Kenya,0.042429666,0.046804272,0.255550374,0,0.36548087,0,0,0,0,0,0,0,0,0,0.073663185,0,0,0,0,0.023285746,0.192785886,0,0,0,0,0,0,0,0,0,0,0,0,0,0,0,0,0,0,0,0,0,0,0
PD43816a,Kenya,0.027299843,0.051297673,0,0,0,0,0.059021461,0,0,0.130413683,0,0,0,0,0.049839897,0,0,0.084365654,0.030255417,0.0877861,0.094163364,0,0,0,0,0,0,0,0.077223174,0,0,0,0.088174264,0,0,0.103478256,0,0,0.116681214,0,0,0,0,0
PD43817a,Tanzania,0.062601423,0.059440332,0.357972239,0,0.302293885,0,0,0,0,0,0,0,0,0,0.112951897,0,0,0,0,0,0.104740225,0,0,0,0,0,0,0,0,0,0,0,0,0,0,0,0,0,0,0,0,0,0,0
PD43818a,Tanzania,0.052793253,0,0,0,0.517309168,0,0,0,0,0.175139581,0,0.023458584,0,0,0.047257688,0,0,0,0,0,0,0,0,0,0,0,0.091368416,0,0,0,0,0,0,0,0,0,0,0,0.092673311,0,0,0,0,0
PD43819a,Tanzania,0.057353219,0.181241609,0,0,0.306875342,0,0,0,0,0,0,0,0,0,0.196576511,0,0,0,0,0,0.257953319,0,0,0,0,0,0,0,0,0,0,0,0,0,0,0,0,0,0,0,0,0,0,0
PD44659a,Iran,0.087063888,0.041430287,0.353838615,0,0.317361129,0,0,0,0,0,0,0,0,0,0.074530868,0,0,0,0,0,0,0,0,0,0,0,0,0,0,0.0358655,0,0.089909712,0,0,0,0,0,0,0,0,0,0,0,0
PD44660a,Iran,0.062703775,0.111768865,0,0,0.506088467,0,0,0,0,0,0,0,0,0,0.148015683,0,0,0,0,0.052116799,0.119306411,0,0,0,0,0,0,0,0,0,0,0,0,0,0,0,0,0,0,0,0,0,0,0
PD44661a,Iran,0.08837584,0.1877458,0.375320579,0,0,0,0,0,0,0,0,0,0,0,0.267200902,0,0,0,0,0,0.081356879,0,0,0,0,0,0,0,0,0,0,0,0,0,0,0,0,0,0,0,0,0,0,0
PD44662a,Iran,0.169057464,0.056554638,0.291269152,0,0,0,0.036389647,0,0,0,0.098316478,0,0,0,0.042904121,0,0,0,0,0,0.19372554,0,0,0,0,0,0,0,0,0.028156749,0,0,0,0,0,0.083626212,0,0,0,0,0,0,0,0
PD44663a,Iran,0.091085373,0.038488272,0.284389043,0,0.275972306,0,0,0,0,0,0,0,0,0,0.095784122,0,0,0,0,0,0.214280883,0,0,0,0,0,0,0,0,0,0,0,0,0,0,0,0,0,0,0,0,0,0,0
PD44664a,Tanzania,0.047301354,0.243599595,0.258223676,0,0,0,0,0,0,0,0,0,0,0,0.450875375,0,0,0,0,0,0,0,0,0,0,0,0,0,0,0,0,0,0,0,0,0,0,0,0,0,0,0,0,0
PD44665a,Tanzania,0.064536956,0.069683668,0,0,0,0,0,0,0,0,0,0,0,0,0.096317679,0,0,0.067805885,0,0,0.147025856,0,0,0.043329151,0,0,0,0,0,0,0,0,0,0,0.442216476,0.06908433,0,0,0,0,0,0,0,0
PD44666a,Tanzania,0.13111994,0.071223489,0,0,0.453481911,0,0.042793163,0,0,0,0,0,0,0,0.040017907,0,0,0,0,0,0.26136359,0,0,0,0,0,0,0,0,0,0,0,0,0,0,0,0,0,0,0,0,0,0,0
PD44668a,Tanzania,0.084979965,0.045379843,0,0,0.500588492,0,0,0,0,0,0,0,0,0,0,0,0.050614951,0,0,0,0.195541235,0,0,0,0,0,0,0,0,0.03914548,0,0,0,0,0,0,0,0,0.083750033,0,0,0,0,0
PD44669a,Tanzania,0.036339099,0.032585023,0,0.239175441,0.34476649,0,0,0,0,0,0,0,0,0,0.04966974,0,0,0,0,0,0,0,0,0,0,0,0,0,0,0,0,0,0,0,0.297464208,0,0,0,0,0,0,0,0,0
PD44670a,Tanzania,0.076664611,0.031736299,0,0,0.362242905,0,0,0,0,0,0,0,0,0,0,0,0,0,0,0.075476701,0.407106294,0,0,0,0,0,0,0,0,0.04677319,0,0,0,0,0,0,0,0,0,0,0,0,0,0
PD44671a,Tanzania,0.039009075,0.086435837,0,0.144093748,0.453633507,0,0,0,0,0,0,0,0,0,0.103105981,0,0,0,0,0,0.173721851,0,0,0,0,0,0,0,0,0,0,0,0,0,0,0,0,0,0,0,0,0,0,0
PD44672a,Tanzania,0.06371378,0.046222865,0,0,0,0,0,0,0,0,0,0,0,0,0.096464832,0,0,0.091152125,0,0.056211988,0.109223701,0,0,0,0,0,0,0,0,0.035024754,0,0,0,0,0.501985955,0,0,0,0,0,0,0,0,0
PD44674a,Tanzania,0.12626744,0.094236442,0,0,0.327327956,0,0.04355763,0,0,0,0,0,0,0,0.089559687,0,0,0,0,0,0.319050845,0,0,0,0,0,0,0,0,0,0,0,0,0,0,0,0,0,0,0,0,0,0,0
PD44675a,Tanzania,0.098559654,0.064328507,0,0,0.464210173,0,0,0,0,0.11998356,0,0,0,0,0.087013552,0,0,0,0,0,0.165904555,0,0,0,0,0,0,0,0,0,0,0,0,0,0,0,0,0,0,0,0,0,0,0
PD44676a,Tanzania,0.086588438,0.068667024,0,0,0.532682999,0,0,0,0,0,0,0,0,0,0.085138536,0,0,0,0,0,0.197297939,0,0,0,0,0,0,0,0,0.029625063,0,0,0,0,0,0,0,0,0,0,0,0,0,0
PD44678a,Malawi,0.070104948,0.134634442,0.382294765,0,0,0,0,0,0,0,0,0,0,0,0.304770287,0,0,0,0,0,0.108195558,0,0,0,0,0,0,0,0,0,0,0,0,0,0,0,0,0,0,0,0,0,0,0
PD44679a,Malawi,0.061165173,0.064630184,0,0,0,0,0,0,0,0.192973434,0,0,0,0,0.162880428,0,0,0.054634736,0,0,0.077147156,0,0,0,0.125296743,0,0.096910991,0,0,0,0,0,0,0.164361155,0,0,0,0,0,0,0,0,0,0
PD44681a,Malawi,0.077429841,0.039670297,0.287241511,0,0.350009882,0,0,0,0,0,0,0,0,0,0.095681247,0,0,0,0,0,0.062938875,0,0,0,0,0,0,0,0,0,0,0,0,0,0,0,0,0.087028347,0,0,0,0,0,0
PD44682a,Malawi,0.078156677,0.04180566,0,0,0,0,0,0,0,0,0,0,0,0,0.035150069,0,0,0,0,0,0.272277454,0,0,0.061173378,0,0,0,0,0.038396277,0,0,0,0,0,0.408478193,0.064562292,0,0,0,0,0,0,0,0
PD44683a,Malawi,0.046963537,0.037479409,0,0,0.441938889,0,0,0,0,0,0,0,0,0,0.10393991,0,0,0,0,0,0.262429335,0,0,0,0,0.032903691,0,0,0,0,0,0,0,0,0,0,0,0.07434523,0,0,0,0,0,0
PD44684a,Malawi,0.081917366,0.169074583,0,0,0.299958512,0,0,0,0,0,0,0,0,0,0.269801099,0,0,0,0,0,0.17924844,0,0,0,0,0,0,0,0,0,0,0,0,0,0,0,0,0,0,0,0,0,0,0
PD44685a,Malawi,0.088971941,0.100528998,0,0,0.387025604,0,0,0,0,0.134940881,0,0,0,0,0.120482831,0,0,0,0,0,0.168049745,0,0,0,0,0,0,0,0,0,0,0,0,0,0,0,0,0,0,0,0,0,0,0
PD44686a,Malawi,0.068748074,0.071064027,0,0,0.308150576,0,0,0,0,0,0,0,0,0,0.096204977,0,0,0,0,0,0.077661713,0,0,0,0,0,0,0.053138896,0,0,0,0,0,0,0.25416814,0.070863596,0,0,0,0,0,0,0,0
PD44687a,Malawi,0.064671969,0.087738492,0,0,0,0,0,0,0,0.154634519,0,0,0,0,0.112842266,0,0,0,0,0,0,0,0,0,0,0,0,0,0,0,0,0,0,0,0.520142395,0,0,0.059970359,0,0,0,0,0,0
PD44688a,Malawi,0.069126869,0.372096143,0,0,0,0,0,0,0,0,0,0,0,0,0.558776988,0,0,0,0,0,0,0,0,0,0,0,0,0,0,0,0,0,0,0,0,0,0,0,0,0,0,0,0,0
PD44689a,Brazil,0.049492179,0.062552501,0.310497166,0,0.195580143,0,0,0,0,0,0,0,0,0,0.147465688,0,0,0.069761389,0,0,0.135250355,0,0,0,0,0,0,0,0,0.029400579,0,0,0,0,0,0,0,0,0,0,0,0,0,0
PD44690a,Iran,0.043314111,0.089365873,0,0,0,0,0,0,0,0.219175696,0,0,0,0,0.16415354,0,0.070322576,0,0,0.022800851,0,0,0,0,0,0,0.083547016,0,0.056045272,0,0,0,0.132469509,0,0,0,0,0,0,0,0.118805556,0,0,0
PD44754a,UK,0.171211066,0,0,0,0,0,0,0,0,0,0,0,0,0,0,0,0,0,0,0,0.142212086,0,0,0,0,0,0,0,0,0,0,0,0,0,0.686576848,0,0,0,0,0,0,0,0,0
PD44755a,UK,0.064282361,0.328241742,0,0,0.190136798,0,0,0,0,0,0,0,0,0,0.298765256,0,0,0,0,0,0.118573842,0,0,0,0,0,0,0,0,0,0,0,0,0,0,0,0,0,0,0,0,0,0,0
PD44756a,UK,0.04573121,0.084672858,0.493483261,0,0.171392112,0,0,0,0,0,0,0,0,0,0.204720559,0,0,0,0,0,0,0,0,0,0,0,0,0,0,0,0,0,0,0,0,0,0,0,0,0,0,0,0,0
PD44757a,UK,0.04796381,0.101880117,0.245062607,0,0.258350861,0,0,0,0,0,0,0,0,0,0.165331867,0,0,0,0,0,0.181410738,0,0,0,0,0,0,0,0,0,0,0,0,0,0,0,0,0,0,0,0,0,0,0
PD45472a,Malawi,0.04066948,0.034288913,0,0,0,0,0,0,0,0,0,0,0,0.133577774,0.059627578,0,0,0,0,0,0.101345093,0,0,0.063572772,0,0,0,0,0,0,0,0,0,0,0.566918391,0,0,0,0,0,0,0,0,0
PD45473a,Malawi,0.067443159,0,0,0,0,0,0,0,0,0,0,0,0,0,0,0,0.058168847,0,0,0,0.382056472,0,0,0,0,0,0,0,0,0,0,0,0,0,0.492331522,0,0,0,0,0,0,0,0,0
PD45474a,Malawi,0.04841791,0.083266257,0,0,0.279154857,0,0,0,0,0,0,0,0,0,0.157163629,0,0.14851412,0,0,0,0,0.14469931,0.050464114,0.088319802,0,0,0,0,0,0,0,0,0,0,0,0,0,0,0,0,0,0,0,0
PD45475a,Malawi,0.076373542,0.122711281,0.231413254,0,0.24705243,0,0,0,0,0,0,0,0,0,0.242042158,0,0,0,0,0,0.080407335,0,0,0,0,0,0,0,0,0,0,0,0,0,0,0,0,0,0,0,0,0,0,0
PD45476a,Malawi,0.140657566,0,0,0,0,0,0,0,0,0,0,0,0,0,0.033734519,0,0,0,0,0,0.170976372,0,0,0,0,0,0,0,0,0,0,0,0,0,0.654631544,0,0,0,0,0,0,0,0,0
PD45477a,Malawi,0.098497099,0.151935113,0,0,0,0,0,0,0,0,0,0,0,0,0.119611225,0,0,0,0,0,0.161712431,0,0,0,0,0,0,0,0,0,0,0,0,0,0.468244131,0,0,0,0,0,0,0,0,0
PD45479a,Malawi,0.093852586,0.04069218,0,0,0,0,0.060784462,0,0,0,0,0,0,0.086263097,0.05541822,0,0,0,0,0,0.466684392,0,0,0,0,0,0,0,0,0,0,0,0,0.196305063,0,0,0,0,0,0,0,0,0,0
PD45480a,Malawi,0.027010898,0.08467688,0,0.219385766,0.505116918,0,0,0,0,0,0,0,0,0,0.163809538,0,0,0,0,0,0,0,0,0,0,0,0,0,0,0,0,0,0,0,0,0,0,0,0,0,0,0,0,0
PD45481a,Malawi,0.114073398,0,0,0,0,0,0,0,0,0,0,0,0,0,0,0,0,0,0,0,0.189835988,0,0,0,0,0,0,0,0.034885015,0,0,0,0,0,0.661205599,0,0,0,0,0,0,0,0,0
PD45482a,Iran,0.05428292,0.230954536,0,0,0.351437312,0,0,0,0,0,0,0,0,0,0.238193991,0,0,0,0,0,0.125131241,0,0,0,0,0,0,0,0,0,0,0,0,0,0,0,0,0,0,0,0,0,0,0
PD45483a,Iran,0.125206669,0.174388098,0,0,0.39388867,0,0,0,0,0,0,0,0,0,0.188074209,0,0,0,0,0,0.118442354,0,0,0,0,0,0,0,0,0,0,0,0,0,0,0,0,0,0,0,0,0,0,0
PD45484a,Brazil,0.060266524,0,0,0,0,0,0,0,0,0,0,0,0,0,0,0,0,0.098078964,0,0,0.12389918,0,0,0,0,0,0,0,0,0,0,0,0,0,0.49901699,0.071450736,0,0,0.147287607,0,0,0,0,0
PD45485a,Brazil,0.061851271,0.278230892,0.284744107,0,0,0,0,0,0,0,0,0,0,0,0.37517373,0,0,0,0,0,0,0,0,0,0,0,0,0,0,0,0,0,0,0,0,0,0,0,0,0,0,0,0,0
PD45486a,Brazil,0.047334913,0.046494946,0.385770971,0,0.2752234,0,0,0,0,0,0,0,0,0,0.073456385,0,0,0.069687165,0,0,0.102032219,0,0,0,0,0,0,0,0,0,0,0,0,0,0,0,0,0,0,0,0,0,0,0
PD45487a,Brazil,0.037322222,0.030250106,0,0,0,0,0,0,0,0,0,0,0,0,0.07340028,0,0,0.046734738,0,0,0.081750207,0,0,0,0,0,0,0,0,0,0,0,0,0.136020611,0.540142504,0.054379333,0,0,0,0,0,0,0,0
PD45488a,Brazil,0.059971844,0.052505796,0,0,0,0,0.054606334,0,0,0.172914599,0,0,0,0,0.045502325,0,0,0.151262121,0,0,0.216660501,0,0,0,0,0,0,0,0,0,0,0,0,0,0,0.106698302,0,0,0.139878178,0,0,0,0,0
PD45489a,Brazil,0.053538991,0.077831324,0,0,0.467861445,0,0,0,0,0.141657842,0,0,0,0,0.138615584,0,0,0,0,0,0.120494814,0,0,0,0,0,0,0,0,0,0,0,0,0,0,0,0,0,0,0,0,0,0,0
PD45490a,Brazil,0.080885237,0.036266055,0,0,0,0,0,0,0,0,0,0,0,0,0.075467984,0,0,0.083757016,0,0,0.121897557,0,0,0,0,0,0,0,0,0,0,0,0,0,0.52895511,0.072771041,0,0,0,0,0,0,0,0
PD45491a,Brazil,0.069691839,0.123540103,0,0,0.48836811,0,0,0,0,0,0,0,0,0,0.102237646,0,0,0,0,0,0.178583187,0,0,0,0,0,0,0,0,0.037579116,0,0,0,0,0,0,0,0,0,0,0,0,0,0
PD45492a,Brazil,0.038035726,0.204304722,0,0,0.370445251,0,0,0,0,0,0,0,0,0,0.216430479,0,0,0,0,0,0.170783822,0,0,0,0,0,0,0,0,0,0,0,0,0,0,0,0,0,0,0,0,0,0,0
PD45493a,Brazil,0.096315612,0.077755562,0,0,0.348043519,0,0,0,0,0.152167302,0,0,0,0,0.102526531,0,0.049961928,0,0,0.058905239,0.114324306,0,0,0,0,0,0,0,0,0,0,0,0,0,0,0,0,0,0,0,0,0,0,0
PD45494a,Brazil,0.056317856,0,0,0,0.257457048,0,0,0,0,0,0,0,0,0,0,0,0,0,0,0,0.199238365,0,0,0,0,0,0,0,0,0,0,0,0,0,0.486986731,0,0,0,0,0,0,0,0,0
PD45495a,Brazil,0.060334788,0.047957569,0.307024549,0,0,0,0,0,0,0,0,0,0,0,0.036763069,0,0,0.145353756,0,0,0.191940577,0,0,0,0,0,0,0,0,0,0,0,0,0,0,0.084986047,0,0,0.125639644,0,0,0,0,0
PD45496a,Brazil,0.049296622,0.045579288,0,0,0.565533454,0,0,0,0,0.165537408,0,0,0,0,0.067952326,0,0,0,0,0,0,0,0,0,0,0,0,0,0,0,0,0,0,0,0,0,0,0,0.106100903,0,0,0,0,0
PD45497a,Malawi,0.164685488,0.083086045,0,0,0,0,0,0,0,0,0,0,0,0,0.031567655,0,0,0,0,0,0.223439519,0,0,0,0,0,0,0,0,0,0,0,0,0,0.497221293,0,0,0,0,0,0,0,0,0
PD45498a,Malawi,0.09962466,0.085929934,0,0,0.411286417,0,0,0,0,0,0,0,0,0,0.147620556,0,0,0,0,0,0.223391734,0,0,0,0,0,0,0,0,0.0321467,0,0,0,0,0,0,0,0,0,0,0,0,0,0
PD45499a,Malawi,0.0869651,0.043533129,0,0,0.501650371,0,0,0,0,0.145128761,0,0,0,0,0.092303286,0,0,0,0,0,0.130419354,0,0,0,0,0,0,0,0,0,0,0,0,0,0,0,0,0,0,0,0,0,0,0
PD45502a,Malawi,0.112862783,0.032380824,0,0,0,0,0,0,0,0,0,0,0,0,0,0,0,0,0,0,0.134231581,0,0,0,0,0,0,0,0,0,0,0,0,0,0.640490983,0.080033829,0,0,0,0,0,0,0,0
PD45503a,Brazil,0.093580183,0,0,0,0,0,0,0,0,0,0,0,0,0,0,0,0,0.124842666,0,0,0.139888178,0,0,0,0,0,0,0,0,0,0,0,0,0,0.641688972,0,0,0,0,0,0,0,0,0
PD46987a,Malawi,0.075902178,0.058605327,0.261785176,0,0.287294398,0,0,0,0,0,0,0,0,0,0.108984419,0,0,0,0,0,0.112939272,0,0,0,0,0,0,0,0,0,0,0,0,0,0,0,0,0,0.094489231,0,0,0,0,0
PD46988a,Malawi,0.148518652,0.066965616,0.246730458,0,0.317701964,0,0,0,0,0,0,0,0,0,0.095072798,0,0.047947818,0,0,0,0.077062694,0,0,0,0,0,0,0,0,0,0,0,0,0,0,0,0,0,0,0,0,0,0,0
PD46989a,Malawi,0.049405347,0.126399354,0.280884247,0,0.183057041,0,0,0,0,0,0,0,0,0,0.118847473,0,0,0,0,0,0.11287233,0,0,0,0,0,0,0,0,0,0,0,0,0,0,0,0,0,0.128534208,0,0,0,0,0
PD46990a,Malawi,0.070114433,0.226935718,0,0,0,0,0,0,0,0,0,0,0,0,0.362314635,0,0,0,0,0,0.168675265,0,0,0,0,0,0,0,0,0,0,0,0,0.171959949,0,0,0,0,0,0,0,0,0,0
PD46991a,Malawi,0.044004145,0.079604118,0.555077081,0,0,0,0,0,0,0,0,0,0,0,0.145901366,0,0,0,0,0,0.068701998,0,0,0,0,0,0,0,0,0,0,0,0,0,0,0,0,0,0,0,0,0.106711292,0,0
PD46992a,Malawi,0.146866528,0,0,0,0,0,0,0,0,0,0,0,0,0,0,0,0,0,0,0,0.206435621,0,0,0,0,0,0,0,0,0,0,0,0,0,0.646697851,0,0,0,0,0,0,0,0,0
PD46993a,Malawi,0.055009088,0.249392128,0,0,0.340878907,0,0,0,0,0,0,0,0,0,0.190040578,0,0,0,0,0.029704221,0.134975077,0,0,0,0,0,0,0,0,0,0,0,0,0,0,0,0,0,0,0,0,0,0,0
PD46994a,Malawi,0.08533897,0.078839474,0,0,0,0,0,0,0,0,0,0,0,0,0.087796781,0.058585509,0,0,0,0,0,0,0,0,0,0,0,0,0,0,0,0,0,0,0.507495537,0,0,0,0,0,0.18194373,0,0,0
PD46996a,Malawi,0.074065245,0.065283788,0,0,0,0,0,0,0,0,0,0,0,0,0,0,0,0,0,0,0.428066523,0,0,0,0,0,0,0,0,0,0,0,0,0,0.432584444,0,0,0,0,0,0,0,0,0
PD46997a,Malawi,0,0.295268888,0,0,0,0,0,0,0,0,0,0,0,0,0.433286255,0,0,0,0,0,0,0,0,0,0,0,0,0,0,0,0,0,0,0,0,0,0,0,0,0,0.271444857,0,0,0
PD46998a,Malawi,0.08458284,0.029957833,0.291753406,0,0.271311785,0,0,0,0,0,0,0,0,0,0.045087675,0,0,0,0,0,0.233748974,0,0,0,0,0,0,0,0,0.043557487,0,0,0,0,0,0,0,0,0,0,0,0,0,0
PD47000a,Malawi,0.039915572,0.031380875,0.378007804,0,0,0,0,0,0,0,0,0,0,0,0.031258574,0,0,0.124878548,0,0,0.244706092,0,0,0.04929005,0,0,0,0,0,0,0,0,0,0,0,0,0,0,0,0.100562485,0,0,0,0
PD47001a,Malawi,0.05837568,0.038012545,0,0,0.399383356,0,0,0,0,0.150628975,0,0,0,0,0.050447472,0,0,0,0,0,0.164357667,0,0,0,0,0,0,0,0,0,0,0,0,0,0,0,0,0,0.138794305,0,0,0,0,0
PD47002a,Malawi,0.112782515,0.04150138,0.309705768,0,0.192482553,0,0,0,0,0,0,0,0,0,0.061447413,0,0,0,0,0,0.282080371,0,0,0,0,0,0,0,0,0,0,0,0,0,0,0,0,0,0,0,0,0,0,0
PD47003a,Malawi,0.176436437,0.069587233,0,0,0.34548051,0,0,0,0,0,0,0,0,0,0.074488717,0,0.048255702,0,0,0.06815344,0.18410197,0,0,0,0,0,0,0,0,0.033495992,0,0,0,0,0,0,0,0,0,0,0,0,0,0
PD47005a,Malawi,0.093537814,0.155542926,0,0,0.500053059,0,0,0,0,0,0,0,0,0,0.136705978,0,0,0,0,0,0.114160223,0,0,0,0,0,0,0,0,0,0,0,0,0,0,0,0,0,0,0,0,0,0,0
PD47006a,Malawi,0.112515128,0.032937941,0,0,0.292606062,0,0,0,0,0,0,0,0,0,0,0,0.052286808,0,0,0,0.34940748,0,0,0,0,0,0,0,0,0,0,0,0,0,0,0,0,0,0.160246581,0,0,0,0,0
PD47007a,Malawi,0.085476688,0.108803132,0,0,0.399591016,0,0,0,0,0,0,0,0,0,0.05979493,0,0.048924444,0,0,0,0.265866893,0,0,0,0,0,0,0,0,0.031542896,0,0,0,0,0,0,0,0,0,0,0,0,0,0
PD47008a,Malawi,0.033505833,0.036823452,0.203800952,0,0.180938482,0,0,0,0,0,0,0,0,0,0.06995416,0,0.041976569,0.084739218,0,0.035639863,0.109524227,0,0,0,0,0,0,0,0,0.023146292,0,0,0.090590205,0,0,0,0,0,0.089360746,0,0,0,0,0
PD47010a,Malawi,0.059437695,0.45452615,0,0,0,0,0,0,0,0,0,0,0,0,0.486036156,0,0,0,0,0,0,0,0,0,0,0,0,0,0,0,0,0,0,0,0,0,0,0,0,0,0,0,0,0
PD47011a,Malawi,0.103856501,0.060713038,0,0,0.570102253,0,0,0,0,0,0,0,0,0,0.11321199,0,0,0,0,0,0.152116218,0,0,0,0,0,0,0,0,0,0,0,0,0,0,0,0,0,0,0,0,0,0,0
PD47012a,Malawi,0.051831022,0.0399715,0,0,0.248140688,0,0,0,0,0.221948903,0.135923794,0,0,0,0.081832371,0,0,0,0,0,0.096906763,0,0,0,0,0,0,0,0,0,0,0,0,0.123444959,0,0,0,0,0,0,0,0,0,0
PD47013a,Malawi,0.054622129,0.240846236,0,0,0.280757509,0,0,0,0,0,0,0,0,0,0.423774126,0,0,0,0,0,0,0,0,0,0,0,0,0,0,0,0,0,0,0,0,0,0,0,0,0,0,0,0,0
PD47015a,Brazil,0.029457276,0.055243252,0,0,0.417089579,0,0,0,0,0,0,0,0,0,0.084371112,0,0,0,0,0,0.098670634,0,0,0,0,0,0,0,0,0,0.171989977,0,0,0,0,0,0,0,0.14317817,0,0,0,0,0
PD47021a,Brazil,0.033203344,0.107512527,0,0,0,0,0,0,0,0.138033489,0.112971634,0,0,0,0.188363654,0,0,0.068407208,0,0,0,0,0,0,0,0,0.063684837,0,0,0,0,0,0,0.162208385,0,0,0,0.125614922,0,0,0,0,0,0
PD47022a,Brazil,0.04804021,0.022350141,0,0,0,0,0,0,0,0.17604999,0,0,0,0,0.044484239,0,0,0.043520063,0,0,0.083210236,0,0,0,0,0,0,0,0,0,0,0,0,0.163898671,0.418446449,0,0,0,0,0,0,0,0,0
PD47023a,Brazil,0.05750171,0.05203519,0,0,0.390481336,0,0,0,0,0,0,0,0,0,0.072387486,0,0,0.114391931,0,0,0.191211586,0,0,0,0,0,0,0,0,0,0,0,0,0,0,0,0,0,0.121990761,0,0,0,0,0
PD47024a,Brazil,0.07663881,0.214671326,0,0,0.415013603,0,0,0,0,0,0,0,0,0,0.175262947,0,0,0,0,0,0.118413314,0,0,0,0,0,0,0,0,0,0,0,0,0,0,0,0,0,0,0,0,0,0,0
PD47025a,Brazil,0,0.164580639,0,0,0.43571392,0,0,0,0,0,0,0,0,0,0.239544747,0,0,0,0,0,0,0,0,0,0,0,0,0,0,0,0,0,0,0,0,0,0,0,0,0,0.160160693,0,0,0
PD47026a,Brazil,0.048869099,0.191111834,0.425139584,0,0,0.061882444,0,0,0,0,0,0,0,0,0.27299704,0,0,0,0,0,0,0,0,0,0,0,0,0,0,0,0,0,0,0,0,0,0,0,0,0,0,0,0,0
PD47027a,Brazil,0.045756686,0.291144218,0.396017567,0,0,0,0,0,0,0,0,0,0,0,0.267081529,0,0,0,0,0,0,0,0,0,0,0,0,0,0,0,0,0,0,0,0,0,0,0,0,0,0,0,0,0
PD47028a,Brazil,0.027507587,0.040921219,0,0,0.447071911,0,0,0,0,0,0,0,0,0,0.061609146,0,0,0,0,0,0.142554163,0,0,0,0,0,0,0,0,0,0,0,0,0,0,0,0,0,0.14409414,0.136241835,0,0,0,0
PD47031a,Brazil,0.035002199,0.179197523,0,0,0.368886245,0,0,0,0,0.149148616,0,0,0,0,0.267765417,0,0,0,0,0,0,0,0,0,0,0,0,0,0,0,0,0,0,0,0,0,0,0,0,0,0,0,0,0
PD47033a,Brazil,0.036040848,0.207986875,0,0,0.333843138,0,0,0,0,0,0,0,0,0,0.317098251,0,0,0,0,0,0.105030888,0,0,0,0,0,0,0,0,0,0,0,0,0,0,0,0,0,0,0,0,0,0,0
PD47034a,Brazil,0,0.056900488,0.384872239,0,0,0,0,0,0,0,0,0,0,0,0.072156415,0,0,0.080446025,0,0,0.248472413,0,0,0,0,0,0,0,0,0,0,0,0,0,0,0,0,0,0.157152419,0,0,0,0,0
PD47035a,Brazil,0.087207171,0.049168743,0,0,0.468802256,0,0,0,0,0,0,0,0,0,0.056778718,0,0,0.079741412,0,0,0.122136009,0,0,0,0,0,0,0,0,0.03238747,0,0,0,0,0,0,0,0,0,0,0.103778222,0,0,0
PD47036a,Brazil,0.051383948,0.053309654,0,0,0,0,0,0,0,0.139617346,0,0,0,0,0.138787027,0,0,0.090823254,0,0,0.082770781,0,0,0,0,0,0,0,0,0,0,0,0,0,0.443307991,0,0,0,0,0,0,0,0,0
PD47038a,Brazil,0.044403733,0.053967725,0,0,0,0,0.066244821,0,0,0.191324439,0,0,0,0,0.053128086,0,0,0.05394987,0,0,0.120997098,0,0,0,0,0,0,0,0,0,0,0,0.127134976,0.176348122,0,0.112501131,0,0,0,0,0,0,0,0
PD47265a,UK,0.08473154,0.047677088,0,0,0.45090029,0,0,0,0,0,0,0,0,0,0.025697847,0,0,0,0,0,0.390993235,0,0,0,0,0,0,0,0,0,0,0,0,0,0,0,0,0,0,0,0,0,0,0
PD47266a,UK,0.128064356,0.236879631,0,0,0.328138553,0,0.065162964,0,0,0,0,0,0,0,0.063197385,0,0,0,0,0,0.178557111,0,0,0,0,0,0,0,0,0,0,0,0,0,0,0,0,0,0,0,0,0,0,0
PD47267a,UK,0.0610288,0.24530624,0,0,0.272608977,0,0,0,0,0.184279484,0,0,0,0,0.236776499,0,0,0,0,0,0,0,0,0,0,0,0,0,0,0,0,0,0,0,0,0,0,0,0,0,0,0,0,0