Eigenvalue,PC
2.12419,PC1
1.09302,PC2
1.08766,PC3
1.08295,PC4
1.07898,PC5
1.07578,PC6
1.07274,PC7
1.07179,PC8
1.06984,PC9
1.06826,PC10
1.06425,PC11
1.0635,PC12
1.06218,PC13
1.06162,PC14
1.061,PC15
1.05989,PC16
1.05849,PC17
1.0583,PC18
1.05719,PC19
1.05585,PC20